G04 #@! TF.GenerationSoftware,KiCad,Pcbnew,6.0.6+dfsg-1*
G04 #@! TF.CreationDate,2022-08-11T10:30:40+02:00*
G04 #@! TF.ProjectId,controller,636f6e74-726f-46c6-9c65-722e6b696361,rev?*
G04 #@! TF.SameCoordinates,Original*
G04 #@! TF.FileFunction,Profile,NP*
%FSLAX46Y46*%
G04 Gerber Fmt 4.6, Leading zero omitted, Abs format (unit mm)*
G04 Created by KiCad (PCBNEW 6.0.6+dfsg-1) date 2022-08-11 10:30:40*
%MOMM*%
%LPD*%
G01*
G04 APERTURE LIST*
G04 #@! TA.AperFunction,Profile*
%ADD10C,0.050000*%
G04 #@! TD*
G04 APERTURE END LIST*
D10*
X198120000Y-78740000D02*
G75*
G03*
X195580000Y-76200000I-2540000J0D01*
G01*
X195580000Y-127000000D02*
G75*
G03*
X198120000Y-124460000I0J2540000D01*
G01*
X50800000Y-124460000D02*
G75*
G03*
X53340000Y-127000000I2540000J0D01*
G01*
X53340000Y-76200000D02*
G75*
G03*
X50800000Y-78740000I0J-2540000D01*
G01*
X195580000Y-127000000D02*
X53340000Y-127000000D01*
X198120000Y-78740000D02*
X198120000Y-124460000D01*
X53340000Y-76200000D02*
X195580000Y-76200000D01*
X50800000Y-124460000D02*
X50800000Y-78740000D01*
M02*
