M48
; DRILL file {KiCad 6.0.6+dfsg-1} date jeu. 11 août 2022 10:30:42
; FORMAT={-:-/ absolute / metric / decimal}
; #@! TF.CreationDate,2022-08-11T10:30:42+02:00
; #@! TF.GenerationSoftware,Kicad,Pcbnew,6.0.6+dfsg-1
; #@! TF.FileFunction,Plated,1,2,PTH
FMAT,2
METRIC
; #@! TA.AperFunction,Plated,PTH,ComponentDrill
T1C0.711
; #@! TA.AperFunction,Plated,PTH,ComponentDrill
T2C0.800
; #@! TA.AperFunction,Plated,PTH,ComponentDrill
T3C1.016
; #@! TA.AperFunction,Plated,PTH,ComponentDrill
T4C1.020
; #@! TA.AperFunction,Plated,PTH,ComponentDrill
T5C1.200
; #@! TA.AperFunction,Plated,PTH,ComponentDrill
T6C1.250
; #@! TA.AperFunction,Plated,PTH,ComponentDrill
T7C1.270
; #@! TA.AperFunction,Plated,PTH,ComponentDrill
T8C1.300
; #@! TA.AperFunction,Plated,PTH,ComponentDrill
T9C3.100
%
G90
G05
T1
X63.45Y-98.35
X63.45Y-104.85
X67.95Y-98.35
X67.95Y-104.85
T2
X147.4Y-82.55
X149.4Y-82.55
X151.4Y-82.55
X153.4Y-82.55
X155.4Y-82.55
X157.4Y-82.55
T3
X73.406Y-118.364
X73.7Y-111.6
X76.2Y-111.6
X78.7Y-111.6
X86.106Y-118.364
X86.2Y-99.111
X86.2Y-101.6
X86.2Y-104.1
X92.202Y-103.124
X104.902Y-103.124
T4
X118.935Y-87.122
X120.335Y-84.282
X121.725Y-87.122
X123.125Y-84.282
X124.525Y-87.122
X125.795Y-84.282
X127.185Y-87.122
X128.585Y-84.282
X129.986Y-87.122
T5
X120.75Y-99.1
X120.75Y-104.1
X133.25Y-99.1
X133.25Y-104.1
X138.53Y-99.1
X138.53Y-104.1
X151.03Y-99.1
X151.03Y-104.1
X156.31Y-99.1
X156.31Y-104.1
X168.81Y-99.1
X168.81Y-104.1
X174.09Y-99.1
X174.09Y-104.1
X186.59Y-99.1
X186.59Y-104.1
T6
X145.3Y-82.55
X159.5Y-82.55
T7
X69.5Y-93.8
X69.5Y-109.4
X82.9Y-93.8
X82.9Y-109.4
T8
X93.472Y-92.456
X93.472Y-97.456
X93.472Y-108.712
X93.472Y-113.712
X103.472Y-94.956
X103.472Y-111.212
T9
X111.96Y-85.702
X136.96Y-85.702
T0
M30
