(kicad_sch (version 20211123) (generator eeschema)

  (uuid f7ed2c6b-c3c1-44cf-9adb-6950bfce9c07)

  (paper "USLetter")

  (lib_symbols
    (symbol "Connector:Barrel_Jack_Switch" (pin_names hide) (in_bom yes) (on_board yes)
      (property "Reference" "J" (id 0) (at 0 5.334 0)
        (effects (font (size 1.27 1.27)))
      )
      (property "Value" "Barrel_Jack_Switch" (id 1) (at 0 -5.08 0)
        (effects (font (size 1.27 1.27)))
      )
      (property "Footprint" "" (id 2) (at 1.27 -1.016 0)
        (effects (font (size 1.27 1.27)) hide)
      )
      (property "Datasheet" "~" (id 3) (at 1.27 -1.016 0)
        (effects (font (size 1.27 1.27)) hide)
      )
      (property "ki_keywords" "DC power barrel jack connector" (id 4) (at 0 0 0)
        (effects (font (size 1.27 1.27)) hide)
      )
      (property "ki_description" "DC Barrel Jack with an internal switch" (id 5) (at 0 0 0)
        (effects (font (size 1.27 1.27)) hide)
      )
      (property "ki_fp_filters" "BarrelJack*" (id 6) (at 0 0 0)
        (effects (font (size 1.27 1.27)) hide)
      )
      (symbol "Barrel_Jack_Switch_0_1"
        (rectangle (start -5.08 3.81) (end 5.08 -3.81)
          (stroke (width 0.254) (type default) (color 0 0 0 0))
          (fill (type background))
        )
        (arc (start -3.302 3.175) (mid -3.937 2.54) (end -3.302 1.905)
          (stroke (width 0.254) (type default) (color 0 0 0 0))
          (fill (type none))
        )
        (arc (start -3.302 3.175) (mid -3.937 2.54) (end -3.302 1.905)
          (stroke (width 0.254) (type default) (color 0 0 0 0))
          (fill (type outline))
        )
        (polyline
          (pts
            (xy 1.27 -2.286)
            (xy 1.905 -1.651)
          )
          (stroke (width 0.254) (type default) (color 0 0 0 0))
          (fill (type none))
        )
        (polyline
          (pts
            (xy 5.08 2.54)
            (xy 3.81 2.54)
          )
          (stroke (width 0.254) (type default) (color 0 0 0 0))
          (fill (type none))
        )
        (polyline
          (pts
            (xy 5.08 0)
            (xy 1.27 0)
            (xy 1.27 -2.286)
            (xy 0.635 -1.651)
          )
          (stroke (width 0.254) (type default) (color 0 0 0 0))
          (fill (type none))
        )
        (polyline
          (pts
            (xy -3.81 -2.54)
            (xy -2.54 -2.54)
            (xy -1.27 -1.27)
            (xy 0 -2.54)
            (xy 2.54 -2.54)
            (xy 5.08 -2.54)
          )
          (stroke (width 0.254) (type default) (color 0 0 0 0))
          (fill (type none))
        )
        (rectangle (start 3.683 3.175) (end -3.302 1.905)
          (stroke (width 0.254) (type default) (color 0 0 0 0))
          (fill (type outline))
        )
      )
      (symbol "Barrel_Jack_Switch_1_1"
        (pin passive line (at 7.62 2.54 180) (length 2.54)
          (name "~" (effects (font (size 1.27 1.27))))
          (number "1" (effects (font (size 1.27 1.27))))
        )
        (pin passive line (at 7.62 -2.54 180) (length 2.54)
          (name "~" (effects (font (size 1.27 1.27))))
          (number "2" (effects (font (size 1.27 1.27))))
        )
        (pin passive line (at 7.62 0 180) (length 2.54)
          (name "~" (effects (font (size 1.27 1.27))))
          (number "3" (effects (font (size 1.27 1.27))))
        )
      )
    )
    (symbol "Device:C_Small" (pin_numbers hide) (pin_names (offset 0.254) hide) (in_bom yes) (on_board yes)
      (property "Reference" "C" (id 0) (at 0.254 1.778 0)
        (effects (font (size 1.27 1.27)) (justify left))
      )
      (property "Value" "C_Small" (id 1) (at 0.254 -2.032 0)
        (effects (font (size 1.27 1.27)) (justify left))
      )
      (property "Footprint" "" (id 2) (at 0 0 0)
        (effects (font (size 1.27 1.27)) hide)
      )
      (property "Datasheet" "~" (id 3) (at 0 0 0)
        (effects (font (size 1.27 1.27)) hide)
      )
      (property "ki_keywords" "capacitor cap" (id 4) (at 0 0 0)
        (effects (font (size 1.27 1.27)) hide)
      )
      (property "ki_description" "Unpolarized capacitor, small symbol" (id 5) (at 0 0 0)
        (effects (font (size 1.27 1.27)) hide)
      )
      (property "ki_fp_filters" "C_*" (id 6) (at 0 0 0)
        (effects (font (size 1.27 1.27)) hide)
      )
      (symbol "C_Small_0_1"
        (polyline
          (pts
            (xy -1.524 -0.508)
            (xy 1.524 -0.508)
          )
          (stroke (width 0.3302) (type default) (color 0 0 0 0))
          (fill (type none))
        )
        (polyline
          (pts
            (xy -1.524 0.508)
            (xy 1.524 0.508)
          )
          (stroke (width 0.3048) (type default) (color 0 0 0 0))
          (fill (type none))
        )
      )
      (symbol "C_Small_1_1"
        (pin passive line (at 0 2.54 270) (length 2.032)
          (name "~" (effects (font (size 1.27 1.27))))
          (number "1" (effects (font (size 1.27 1.27))))
        )
        (pin passive line (at 0 -2.54 90) (length 2.032)
          (name "~" (effects (font (size 1.27 1.27))))
          (number "2" (effects (font (size 1.27 1.27))))
        )
      )
    )
    (symbol "Device:R_Small_US" (pin_numbers hide) (pin_names (offset 0.254) hide) (in_bom yes) (on_board yes)
      (property "Reference" "R" (id 0) (at 0.762 0.508 0)
        (effects (font (size 1.27 1.27)) (justify left))
      )
      (property "Value" "R_Small_US" (id 1) (at 0.762 -1.016 0)
        (effects (font (size 1.27 1.27)) (justify left))
      )
      (property "Footprint" "" (id 2) (at 0 0 0)
        (effects (font (size 1.27 1.27)) hide)
      )
      (property "Datasheet" "~" (id 3) (at 0 0 0)
        (effects (font (size 1.27 1.27)) hide)
      )
      (property "ki_keywords" "r resistor" (id 4) (at 0 0 0)
        (effects (font (size 1.27 1.27)) hide)
      )
      (property "ki_description" "Resistor, small US symbol" (id 5) (at 0 0 0)
        (effects (font (size 1.27 1.27)) hide)
      )
      (property "ki_fp_filters" "R_*" (id 6) (at 0 0 0)
        (effects (font (size 1.27 1.27)) hide)
      )
      (symbol "R_Small_US_1_1"
        (polyline
          (pts
            (xy 0 0)
            (xy 1.016 -0.381)
            (xy 0 -0.762)
            (xy -1.016 -1.143)
            (xy 0 -1.524)
          )
          (stroke (width 0) (type default) (color 0 0 0 0))
          (fill (type none))
        )
        (polyline
          (pts
            (xy 0 1.524)
            (xy 1.016 1.143)
            (xy 0 0.762)
            (xy -1.016 0.381)
            (xy 0 0)
          )
          (stroke (width 0) (type default) (color 0 0 0 0))
          (fill (type none))
        )
        (pin passive line (at 0 2.54 270) (length 1.016)
          (name "~" (effects (font (size 1.27 1.27))))
          (number "1" (effects (font (size 1.27 1.27))))
        )
        (pin passive line (at 0 -2.54 90) (length 1.016)
          (name "~" (effects (font (size 1.27 1.27))))
          (number "2" (effects (font (size 1.27 1.27))))
        )
      )
    )
    (symbol "Mechanical:MountingHole_Pad" (pin_numbers hide) (pin_names (offset 1.016) hide) (in_bom yes) (on_board yes)
      (property "Reference" "H" (id 0) (at 0 6.35 0)
        (effects (font (size 1.27 1.27)))
      )
      (property "Value" "MountingHole_Pad" (id 1) (at 0 4.445 0)
        (effects (font (size 1.27 1.27)))
      )
      (property "Footprint" "" (id 2) (at 0 0 0)
        (effects (font (size 1.27 1.27)) hide)
      )
      (property "Datasheet" "~" (id 3) (at 0 0 0)
        (effects (font (size 1.27 1.27)) hide)
      )
      (property "ki_keywords" "mounting hole" (id 4) (at 0 0 0)
        (effects (font (size 1.27 1.27)) hide)
      )
      (property "ki_description" "Mounting Hole with connection" (id 5) (at 0 0 0)
        (effects (font (size 1.27 1.27)) hide)
      )
      (property "ki_fp_filters" "MountingHole*Pad*" (id 6) (at 0 0 0)
        (effects (font (size 1.27 1.27)) hide)
      )
      (symbol "MountingHole_Pad_0_1"
        (circle (center 0 1.27) (radius 1.27)
          (stroke (width 1.27) (type default) (color 0 0 0 0))
          (fill (type none))
        )
      )
      (symbol "MountingHole_Pad_1_1"
        (pin input line (at 0 -2.54 90) (length 2.54)
          (name "1" (effects (font (size 1.27 1.27))))
          (number "1" (effects (font (size 1.27 1.27))))
        )
      )
    )
    (symbol "Regulator_Linear:LM7905_TO220" (pin_names (offset 0.254)) (in_bom yes) (on_board yes)
      (property "Reference" "U" (id 0) (at -3.81 -3.175 0)
        (effects (font (size 1.27 1.27)))
      )
      (property "Value" "LM7905_TO220" (id 1) (at 0 -3.175 0)
        (effects (font (size 1.27 1.27)) (justify left))
      )
      (property "Footprint" "Package_TO_SOT_THT:TO-220-3_Vertical" (id 2) (at 0 -5.08 0)
        (effects (font (size 1.27 1.27) italic) hide)
      )
      (property "Datasheet" "https://www.onsemi.com/pub/Collateral/MC7900-D.PDF" (id 3) (at 0 0 0)
        (effects (font (size 1.27 1.27)) hide)
      )
      (property "ki_keywords" "Voltage Regulator 1A Negative" (id 4) (at 0 0 0)
        (effects (font (size 1.27 1.27)) hide)
      )
      (property "ki_description" "Negative 1A 35V Linear Regulator, Fixed Output 5V, TO-220" (id 5) (at 0 0 0)
        (effects (font (size 1.27 1.27)) hide)
      )
      (property "ki_fp_filters" "TO?220*" (id 6) (at 0 0 0)
        (effects (font (size 1.27 1.27)) hide)
      )
      (symbol "LM7905_TO220_0_1"
        (rectangle (start -5.08 5.08) (end 5.08 -1.905)
          (stroke (width 0.254) (type default) (color 0 0 0 0))
          (fill (type background))
        )
      )
      (symbol "LM7905_TO220_1_1"
        (pin power_in line (at 0 7.62 270) (length 2.54)
          (name "GND" (effects (font (size 1.27 1.27))))
          (number "1" (effects (font (size 1.27 1.27))))
        )
        (pin power_in line (at -7.62 0 0) (length 2.54)
          (name "VI" (effects (font (size 1.27 1.27))))
          (number "2" (effects (font (size 1.27 1.27))))
        )
        (pin power_out line (at 7.62 0 180) (length 2.54)
          (name "VO" (effects (font (size 1.27 1.27))))
          (number "3" (effects (font (size 1.27 1.27))))
        )
      )
    )
    (symbol "Regulator_Switching:MC33063AD" (in_bom yes) (on_board yes)
      (property "Reference" "U" (id 0) (at -7.62 8.89 0)
        (effects (font (size 1.27 1.27)) (justify left))
      )
      (property "Value" "MC33063AD" (id 1) (at 0 8.89 0)
        (effects (font (size 1.27 1.27)) (justify left))
      )
      (property "Footprint" "Package_SO:SOIC-8_3.9x4.9mm_P1.27mm" (id 2) (at 1.27 -11.43 0)
        (effects (font (size 1.27 1.27)) (justify left) hide)
      )
      (property "Datasheet" "http://www.onsemi.com/pub_link/Collateral/MC34063A-D.PDF" (id 3) (at 12.7 -2.54 0)
        (effects (font (size 1.27 1.27)) hide)
      )
      (property "ki_keywords" "smps buck boost inverting" (id 4) (at 0 0 0)
        (effects (font (size 1.27 1.27)) hide)
      )
      (property "ki_description" "1.5A, step-up/down/inverting switching regulator, 3-40V Vin, 100kHz, SO-8" (id 5) (at 0 0 0)
        (effects (font (size 1.27 1.27)) hide)
      )
      (property "ki_fp_filters" "SOIC*3.9x4.9mm*P1.27mm*" (id 6) (at 0 0 0)
        (effects (font (size 1.27 1.27)) hide)
      )
      (symbol "MC33063AD_0_1"
        (rectangle (start -7.62 7.62) (end 7.62 -10.16)
          (stroke (width 0.254) (type default) (color 0 0 0 0))
          (fill (type background))
        )
      )
      (symbol "MC33063AD_1_1"
        (pin open_collector line (at 10.16 0 180) (length 2.54)
          (name "SwC" (effects (font (size 1.27 1.27))))
          (number "1" (effects (font (size 1.27 1.27))))
        )
        (pin open_emitter line (at 10.16 -5.08 180) (length 2.54)
          (name "SwE" (effects (font (size 1.27 1.27))))
          (number "2" (effects (font (size 1.27 1.27))))
        )
        (pin passive line (at -10.16 -5.08 0) (length 2.54)
          (name "TC" (effects (font (size 1.27 1.27))))
          (number "3" (effects (font (size 1.27 1.27))))
        )
        (pin power_in line (at 0 -12.7 90) (length 2.54)
          (name "GND" (effects (font (size 1.27 1.27))))
          (number "4" (effects (font (size 1.27 1.27))))
        )
        (pin input line (at 10.16 -7.62 180) (length 2.54)
          (name "Vfb" (effects (font (size 1.27 1.27))))
          (number "5" (effects (font (size 1.27 1.27))))
        )
        (pin power_in line (at -10.16 5.08 0) (length 2.54)
          (name "Vin" (effects (font (size 1.27 1.27))))
          (number "6" (effects (font (size 1.27 1.27))))
        )
        (pin input line (at 10.16 5.08 180) (length 2.54)
          (name "Ipk" (effects (font (size 1.27 1.27))))
          (number "7" (effects (font (size 1.27 1.27))))
        )
        (pin open_collector line (at 10.16 2.54 180) (length 2.54)
          (name "DC" (effects (font (size 1.27 1.27))))
          (number "8" (effects (font (size 1.27 1.27))))
        )
      )
    )
    (symbol "Scopetrex-rescue:CP_Small-Device" (pin_numbers hide) (pin_names (offset 0.254) hide) (in_bom yes) (on_board yes)
      (property "Reference" "C" (id 0) (at 0.254 1.778 0)
        (effects (font (size 1.27 1.27)) (justify left))
      )
      (property "Value" "CP_Small-Device" (id 1) (at 0.254 -2.032 0)
        (effects (font (size 1.27 1.27)) (justify left))
      )
      (property "Footprint" "" (id 2) (at 0 0 0)
        (effects (font (size 1.27 1.27)) hide)
      )
      (property "Datasheet" "" (id 3) (at 0 0 0)
        (effects (font (size 1.27 1.27)) hide)
      )
      (property "ki_fp_filters" "CP_*" (id 4) (at 0 0 0)
        (effects (font (size 1.27 1.27)) hide)
      )
      (symbol "CP_Small-Device_0_1"
        (rectangle (start -1.524 -0.3048) (end 1.524 -0.6858)
          (stroke (width 0) (type default) (color 0 0 0 0))
          (fill (type outline))
        )
        (rectangle (start -1.524 0.6858) (end 1.524 0.3048)
          (stroke (width 0) (type default) (color 0 0 0 0))
          (fill (type none))
        )
        (polyline
          (pts
            (xy -1.27 1.524)
            (xy -0.762 1.524)
          )
          (stroke (width 0) (type default) (color 0 0 0 0))
          (fill (type none))
        )
        (polyline
          (pts
            (xy -1.016 1.27)
            (xy -1.016 1.778)
          )
          (stroke (width 0) (type default) (color 0 0 0 0))
          (fill (type none))
        )
      )
      (symbol "CP_Small-Device_1_1"
        (pin passive line (at 0 2.54 270) (length 1.8542)
          (name "~" (effects (font (size 1.27 1.27))))
          (number "1" (effects (font (size 1.27 1.27))))
        )
        (pin passive line (at 0 -2.54 90) (length 1.8542)
          (name "~" (effects (font (size 1.27 1.27))))
          (number "2" (effects (font (size 1.27 1.27))))
        )
      )
    )
    (symbol "Scopetrex-rescue:D_Schottky_Small_ALT-Device" (pin_numbers hide) (pin_names (offset 0.254) hide) (in_bom yes) (on_board yes)
      (property "Reference" "D" (id 0) (at -1.27 2.032 0)
        (effects (font (size 1.27 1.27)) (justify left))
      )
      (property "Value" "D_Schottky_Small_ALT-Device" (id 1) (at -7.112 -2.032 0)
        (effects (font (size 1.27 1.27)) (justify left))
      )
      (property "Footprint" "" (id 2) (at 0 0 90)
        (effects (font (size 1.27 1.27)) hide)
      )
      (property "Datasheet" "" (id 3) (at 0 0 90)
        (effects (font (size 1.27 1.27)) hide)
      )
      (property "ki_fp_filters" "TO-???* *_Diode_* *SingleDiode* D_*" (id 4) (at 0 0 0)
        (effects (font (size 1.27 1.27)) hide)
      )
      (symbol "D_Schottky_Small_ALT-Device_0_1"
        (polyline
          (pts
            (xy -0.762 -1.016)
            (xy -0.762 1.016)
          )
          (stroke (width 0) (type default) (color 0 0 0 0))
          (fill (type none))
        )
        (polyline
          (pts
            (xy -0.762 0)
            (xy 0.762 0)
          )
          (stroke (width 0) (type default) (color 0 0 0 0))
          (fill (type none))
        )
        (polyline
          (pts
            (xy -0.762 -1.016)
            (xy -0.508 -1.016)
            (xy -0.508 -0.762)
          )
          (stroke (width 0) (type default) (color 0 0 0 0))
          (fill (type none))
        )
        (polyline
          (pts
            (xy -0.762 1.016)
            (xy -1.016 1.016)
            (xy -1.016 0.762)
          )
          (stroke (width 0) (type default) (color 0 0 0 0))
          (fill (type none))
        )
        (polyline
          (pts
            (xy 0.762 -1.016)
            (xy -0.762 0)
            (xy 0.762 1.016)
            (xy 0.762 -1.016)
          )
          (stroke (width 0) (type default) (color 0 0 0 0))
          (fill (type outline))
        )
      )
      (symbol "D_Schottky_Small_ALT-Device_1_1"
        (pin passive line (at -2.54 0 0) (length 1.778)
          (name "K" (effects (font (size 1.27 1.27))))
          (number "1" (effects (font (size 1.27 1.27))))
        )
        (pin passive line (at 2.54 0 180) (length 1.778)
          (name "A" (effects (font (size 1.27 1.27))))
          (number "2" (effects (font (size 1.27 1.27))))
        )
      )
    )
    (symbol "Scopetrex-rescue:D_Zener_Small_ALT-Device" (pin_numbers hide) (pin_names (offset 0.254) hide) (in_bom yes) (on_board yes)
      (property "Reference" "D" (id 0) (at 0 2.286 0)
        (effects (font (size 1.27 1.27)))
      )
      (property "Value" "D_Zener_Small_ALT-Device" (id 1) (at 0 -2.286 0)
        (effects (font (size 1.27 1.27)))
      )
      (property "Footprint" "" (id 2) (at 0 0 90)
        (effects (font (size 1.27 1.27)) hide)
      )
      (property "Datasheet" "" (id 3) (at 0 0 90)
        (effects (font (size 1.27 1.27)) hide)
      )
      (property "ki_fp_filters" "TO-???* *_Diode_* *SingleDiode* D_*" (id 4) (at 0 0 0)
        (effects (font (size 1.27 1.27)) hide)
      )
      (symbol "D_Zener_Small_ALT-Device_0_1"
        (polyline
          (pts
            (xy 0.762 0)
            (xy -0.762 0)
          )
          (stroke (width 0) (type default) (color 0 0 0 0))
          (fill (type none))
        )
        (polyline
          (pts
            (xy -0.254 1.016)
            (xy -0.762 1.016)
            (xy -0.762 -1.016)
          )
          (stroke (width 0) (type default) (color 0 0 0 0))
          (fill (type none))
        )
        (polyline
          (pts
            (xy 0.762 1.016)
            (xy -0.762 0)
            (xy 0.762 -1.016)
            (xy 0.762 1.016)
          )
          (stroke (width 0) (type default) (color 0 0 0 0))
          (fill (type outline))
        )
      )
      (symbol "D_Zener_Small_ALT-Device_1_1"
        (pin passive line (at -2.54 0 0) (length 1.778)
          (name "K" (effects (font (size 1.27 1.27))))
          (number "1" (effects (font (size 1.27 1.27))))
        )
        (pin passive line (at 2.54 0 180) (length 1.778)
          (name "A" (effects (font (size 1.27 1.27))))
          (number "2" (effects (font (size 1.27 1.27))))
        )
      )
    )
    (symbol "Scopetrex-rescue:Ferrite_Bead_Small-Device" (pin_numbers hide) (pin_names (offset 0)) (in_bom yes) (on_board yes)
      (property "Reference" "FB" (id 0) (at 1.905 1.27 0)
        (effects (font (size 1.27 1.27)) (justify left))
      )
      (property "Value" "Ferrite_Bead_Small-Device" (id 1) (at 1.905 -1.27 0)
        (effects (font (size 1.27 1.27)) (justify left))
      )
      (property "Footprint" "" (id 2) (at -1.778 0 90)
        (effects (font (size 1.27 1.27)) hide)
      )
      (property "Datasheet" "" (id 3) (at 0 0 0)
        (effects (font (size 1.27 1.27)) hide)
      )
      (property "ki_fp_filters" "Inductor_* L_* *Ferrite*" (id 4) (at 0 0 0)
        (effects (font (size 1.27 1.27)) hide)
      )
      (symbol "Ferrite_Bead_Small-Device_0_1"
        (polyline
          (pts
            (xy 0 -1.27)
            (xy 0 -0.7874)
          )
          (stroke (width 0) (type default) (color 0 0 0 0))
          (fill (type none))
        )
        (polyline
          (pts
            (xy 0 0.889)
            (xy 0 1.2954)
          )
          (stroke (width 0) (type default) (color 0 0 0 0))
          (fill (type none))
        )
        (polyline
          (pts
            (xy -1.8288 0.2794)
            (xy -1.1176 1.4986)
            (xy 1.8288 -0.2032)
            (xy 1.1176 -1.4224)
            (xy -1.8288 0.2794)
          )
          (stroke (width 0) (type default) (color 0 0 0 0))
          (fill (type none))
        )
      )
      (symbol "Ferrite_Bead_Small-Device_1_1"
        (pin passive line (at 0 2.54 270) (length 1.27)
          (name "~" (effects (font (size 1.27 1.27))))
          (number "1" (effects (font (size 1.27 1.27))))
        )
        (pin passive line (at 0 -2.54 90) (length 1.27)
          (name "~" (effects (font (size 1.27 1.27))))
          (number "2" (effects (font (size 1.27 1.27))))
        )
      )
    )
    (symbol "Scopetrex-rescue:L_Core_Ferrite-Device" (pin_numbers hide) (pin_names (offset 1.016) hide) (in_bom yes) (on_board yes)
      (property "Reference" "L" (id 0) (at -1.27 0 90)
        (effects (font (size 1.27 1.27)))
      )
      (property "Value" "L_Core_Ferrite-Device" (id 1) (at 2.794 0 90)
        (effects (font (size 1.27 1.27)))
      )
      (property "Footprint" "" (id 2) (at 0 0 0)
        (effects (font (size 1.27 1.27)) hide)
      )
      (property "Datasheet" "" (id 3) (at 0 0 0)
        (effects (font (size 1.27 1.27)) hide)
      )
      (property "ki_fp_filters" "Choke_* *Coil* Inductor_* L_*" (id 4) (at 0 0 0)
        (effects (font (size 1.27 1.27)) hide)
      )
      (symbol "L_Core_Ferrite-Device_0_1"
        (arc (start 0 -2.54) (mid 0.635 -1.905) (end 0 -1.27)
          (stroke (width 0) (type default) (color 0 0 0 0))
          (fill (type none))
        )
        (arc (start 0 -1.27) (mid 0.635 -0.635) (end 0 0)
          (stroke (width 0) (type default) (color 0 0 0 0))
          (fill (type none))
        )
        (polyline
          (pts
            (xy 1.016 -2.794)
            (xy 1.016 -2.286)
          )
          (stroke (width 0) (type default) (color 0 0 0 0))
          (fill (type none))
        )
        (polyline
          (pts
            (xy 1.016 -1.778)
            (xy 1.016 -1.27)
          )
          (stroke (width 0) (type default) (color 0 0 0 0))
          (fill (type none))
        )
        (polyline
          (pts
            (xy 1.016 -0.762)
            (xy 1.016 -0.254)
          )
          (stroke (width 0) (type default) (color 0 0 0 0))
          (fill (type none))
        )
        (polyline
          (pts
            (xy 1.016 0.254)
            (xy 1.016 0.762)
          )
          (stroke (width 0) (type default) (color 0 0 0 0))
          (fill (type none))
        )
        (polyline
          (pts
            (xy 1.016 1.27)
            (xy 1.016 1.778)
          )
          (stroke (width 0) (type default) (color 0 0 0 0))
          (fill (type none))
        )
        (polyline
          (pts
            (xy 1.016 2.286)
            (xy 1.016 2.794)
          )
          (stroke (width 0) (type default) (color 0 0 0 0))
          (fill (type none))
        )
        (polyline
          (pts
            (xy 1.524 -2.286)
            (xy 1.524 -2.794)
          )
          (stroke (width 0) (type default) (color 0 0 0 0))
          (fill (type none))
        )
        (polyline
          (pts
            (xy 1.524 -1.27)
            (xy 1.524 -1.778)
          )
          (stroke (width 0) (type default) (color 0 0 0 0))
          (fill (type none))
        )
        (polyline
          (pts
            (xy 1.524 -0.254)
            (xy 1.524 -0.762)
          )
          (stroke (width 0) (type default) (color 0 0 0 0))
          (fill (type none))
        )
        (polyline
          (pts
            (xy 1.524 0.762)
            (xy 1.524 0.254)
          )
          (stroke (width 0) (type default) (color 0 0 0 0))
          (fill (type none))
        )
        (polyline
          (pts
            (xy 1.524 1.778)
            (xy 1.524 1.27)
          )
          (stroke (width 0) (type default) (color 0 0 0 0))
          (fill (type none))
        )
        (polyline
          (pts
            (xy 1.524 2.794)
            (xy 1.524 2.286)
          )
          (stroke (width 0) (type default) (color 0 0 0 0))
          (fill (type none))
        )
        (arc (start 0 0) (mid 0.635 0.635) (end 0 1.27)
          (stroke (width 0) (type default) (color 0 0 0 0))
          (fill (type none))
        )
        (arc (start 0 1.27) (mid 0.635 1.905) (end 0 2.54)
          (stroke (width 0) (type default) (color 0 0 0 0))
          (fill (type none))
        )
      )
      (symbol "L_Core_Ferrite-Device_1_1"
        (pin passive line (at 0 3.81 270) (length 1.27)
          (name "1" (effects (font (size 1.27 1.27))))
          (number "1" (effects (font (size 1.27 1.27))))
        )
        (pin passive line (at 0 -3.81 90) (length 1.27)
          (name "2" (effects (font (size 1.27 1.27))))
          (number "2" (effects (font (size 1.27 1.27))))
        )
      )
    )
    (symbol "Switch:SW_SPDT" (pin_names (offset 0) hide) (in_bom yes) (on_board yes)
      (property "Reference" "SW" (id 0) (at 0 4.318 0)
        (effects (font (size 1.27 1.27)))
      )
      (property "Value" "SW_SPDT" (id 1) (at 0 -5.08 0)
        (effects (font (size 1.27 1.27)))
      )
      (property "Footprint" "" (id 2) (at 0 0 0)
        (effects (font (size 1.27 1.27)) hide)
      )
      (property "Datasheet" "~" (id 3) (at 0 0 0)
        (effects (font (size 1.27 1.27)) hide)
      )
      (property "ki_keywords" "switch single-pole double-throw spdt ON-ON" (id 4) (at 0 0 0)
        (effects (font (size 1.27 1.27)) hide)
      )
      (property "ki_description" "Switch, single pole double throw" (id 5) (at 0 0 0)
        (effects (font (size 1.27 1.27)) hide)
      )
      (symbol "SW_SPDT_0_0"
        (circle (center -2.032 0) (radius 0.508)
          (stroke (width 0) (type default) (color 0 0 0 0))
          (fill (type none))
        )
        (circle (center 2.032 -2.54) (radius 0.508)
          (stroke (width 0) (type default) (color 0 0 0 0))
          (fill (type none))
        )
      )
      (symbol "SW_SPDT_0_1"
        (polyline
          (pts
            (xy -1.524 0.254)
            (xy 1.651 2.286)
          )
          (stroke (width 0) (type default) (color 0 0 0 0))
          (fill (type none))
        )
        (circle (center 2.032 2.54) (radius 0.508)
          (stroke (width 0) (type default) (color 0 0 0 0))
          (fill (type none))
        )
      )
      (symbol "SW_SPDT_1_1"
        (pin passive line (at 5.08 2.54 180) (length 2.54)
          (name "A" (effects (font (size 1.27 1.27))))
          (number "1" (effects (font (size 1.27 1.27))))
        )
        (pin passive line (at -5.08 0 0) (length 2.54)
          (name "B" (effects (font (size 1.27 1.27))))
          (number "2" (effects (font (size 1.27 1.27))))
        )
        (pin passive line (at 5.08 -2.54 180) (length 2.54)
          (name "C" (effects (font (size 1.27 1.27))))
          (number "3" (effects (font (size 1.27 1.27))))
        )
      )
    )
    (symbol "power:+5V" (power) (pin_names (offset 0)) (in_bom yes) (on_board yes)
      (property "Reference" "#PWR" (id 0) (at 0 -3.81 0)
        (effects (font (size 1.27 1.27)) hide)
      )
      (property "Value" "+5V" (id 1) (at 0 3.556 0)
        (effects (font (size 1.27 1.27)))
      )
      (property "Footprint" "" (id 2) (at 0 0 0)
        (effects (font (size 1.27 1.27)) hide)
      )
      (property "Datasheet" "" (id 3) (at 0 0 0)
        (effects (font (size 1.27 1.27)) hide)
      )
      (property "ki_keywords" "power-flag" (id 4) (at 0 0 0)
        (effects (font (size 1.27 1.27)) hide)
      )
      (property "ki_description" "Power symbol creates a global label with name \"+5V\"" (id 5) (at 0 0 0)
        (effects (font (size 1.27 1.27)) hide)
      )
      (symbol "+5V_0_1"
        (polyline
          (pts
            (xy -0.762 1.27)
            (xy 0 2.54)
          )
          (stroke (width 0) (type default) (color 0 0 0 0))
          (fill (type none))
        )
        (polyline
          (pts
            (xy 0 0)
            (xy 0 2.54)
          )
          (stroke (width 0) (type default) (color 0 0 0 0))
          (fill (type none))
        )
        (polyline
          (pts
            (xy 0 2.54)
            (xy 0.762 1.27)
          )
          (stroke (width 0) (type default) (color 0 0 0 0))
          (fill (type none))
        )
      )
      (symbol "+5V_1_1"
        (pin power_in line (at 0 0 90) (length 0) hide
          (name "+5V" (effects (font (size 1.27 1.27))))
          (number "1" (effects (font (size 1.27 1.27))))
        )
      )
    )
    (symbol "power:+5VA" (power) (pin_names (offset 0)) (in_bom yes) (on_board yes)
      (property "Reference" "#PWR" (id 0) (at 0 -3.81 0)
        (effects (font (size 1.27 1.27)) hide)
      )
      (property "Value" "+5VA" (id 1) (at 0 3.556 0)
        (effects (font (size 1.27 1.27)))
      )
      (property "Footprint" "" (id 2) (at 0 0 0)
        (effects (font (size 1.27 1.27)) hide)
      )
      (property "Datasheet" "" (id 3) (at 0 0 0)
        (effects (font (size 1.27 1.27)) hide)
      )
      (property "ki_keywords" "power-flag" (id 4) (at 0 0 0)
        (effects (font (size 1.27 1.27)) hide)
      )
      (property "ki_description" "Power symbol creates a global label with name \"+5VA\"" (id 5) (at 0 0 0)
        (effects (font (size 1.27 1.27)) hide)
      )
      (symbol "+5VA_0_1"
        (polyline
          (pts
            (xy -0.762 1.27)
            (xy 0 2.54)
          )
          (stroke (width 0) (type default) (color 0 0 0 0))
          (fill (type none))
        )
        (polyline
          (pts
            (xy 0 0)
            (xy 0 2.54)
          )
          (stroke (width 0) (type default) (color 0 0 0 0))
          (fill (type none))
        )
        (polyline
          (pts
            (xy 0 2.54)
            (xy 0.762 1.27)
          )
          (stroke (width 0) (type default) (color 0 0 0 0))
          (fill (type none))
        )
      )
      (symbol "+5VA_1_1"
        (pin power_in line (at 0 0 90) (length 0) hide
          (name "+5VA" (effects (font (size 1.27 1.27))))
          (number "1" (effects (font (size 1.27 1.27))))
        )
      )
    )
    (symbol "power:-12VA" (power) (pin_names (offset 0)) (in_bom yes) (on_board yes)
      (property "Reference" "#PWR" (id 0) (at 0 -3.81 0)
        (effects (font (size 1.27 1.27)) hide)
      )
      (property "Value" "-12VA" (id 1) (at 0 3.556 0)
        (effects (font (size 1.27 1.27)))
      )
      (property "Footprint" "" (id 2) (at 0 0 0)
        (effects (font (size 1.27 1.27)) hide)
      )
      (property "Datasheet" "" (id 3) (at 0 0 0)
        (effects (font (size 1.27 1.27)) hide)
      )
      (property "ki_keywords" "power-flag" (id 4) (at 0 0 0)
        (effects (font (size 1.27 1.27)) hide)
      )
      (property "ki_description" "Power symbol creates a global label with name \"-12VA\"" (id 5) (at 0 0 0)
        (effects (font (size 1.27 1.27)) hide)
      )
      (symbol "-12VA_0_0"
        (pin power_in line (at 0 0 90) (length 0) hide
          (name "-12VA" (effects (font (size 1.27 1.27))))
          (number "1" (effects (font (size 1.27 1.27))))
        )
      )
      (symbol "-12VA_0_1"
        (polyline
          (pts
            (xy 0 0)
            (xy 0 1.27)
            (xy 0.762 1.27)
            (xy 0 2.54)
            (xy -0.762 1.27)
            (xy 0 1.27)
          )
          (stroke (width 0) (type default) (color 0 0 0 0))
          (fill (type outline))
        )
      )
    )
    (symbol "power:-5VA" (power) (pin_names (offset 0)) (in_bom yes) (on_board yes)
      (property "Reference" "#PWR" (id 0) (at 0 2.54 0)
        (effects (font (size 1.27 1.27)) hide)
      )
      (property "Value" "-5VA" (id 1) (at 0 3.81 0)
        (effects (font (size 1.27 1.27)))
      )
      (property "Footprint" "" (id 2) (at 0 0 0)
        (effects (font (size 1.27 1.27)) hide)
      )
      (property "Datasheet" "" (id 3) (at 0 0 0)
        (effects (font (size 1.27 1.27)) hide)
      )
      (property "ki_keywords" "power-flag" (id 4) (at 0 0 0)
        (effects (font (size 1.27 1.27)) hide)
      )
      (property "ki_description" "Power symbol creates a global label with name \"-5VA\"" (id 5) (at 0 0 0)
        (effects (font (size 1.27 1.27)) hide)
      )
      (symbol "-5VA_0_0"
        (pin power_in line (at 0 0 90) (length 0) hide
          (name "-5VA" (effects (font (size 1.27 1.27))))
          (number "1" (effects (font (size 1.27 1.27))))
        )
      )
      (symbol "-5VA_0_1"
        (polyline
          (pts
            (xy 0 0)
            (xy 0 1.27)
            (xy 0.762 1.27)
            (xy 0 2.54)
            (xy -0.762 1.27)
            (xy 0 1.27)
          )
          (stroke (width 0) (type default) (color 0 0 0 0))
          (fill (type outline))
        )
      )
    )
    (symbol "power:GND" (power) (pin_names (offset 0)) (in_bom yes) (on_board yes)
      (property "Reference" "#PWR" (id 0) (at 0 -6.35 0)
        (effects (font (size 1.27 1.27)) hide)
      )
      (property "Value" "GND" (id 1) (at 0 -3.81 0)
        (effects (font (size 1.27 1.27)))
      )
      (property "Footprint" "" (id 2) (at 0 0 0)
        (effects (font (size 1.27 1.27)) hide)
      )
      (property "Datasheet" "" (id 3) (at 0 0 0)
        (effects (font (size 1.27 1.27)) hide)
      )
      (property "ki_keywords" "power-flag" (id 4) (at 0 0 0)
        (effects (font (size 1.27 1.27)) hide)
      )
      (property "ki_description" "Power symbol creates a global label with name \"GND\" , ground" (id 5) (at 0 0 0)
        (effects (font (size 1.27 1.27)) hide)
      )
      (symbol "GND_0_1"
        (polyline
          (pts
            (xy 0 0)
            (xy 0 -1.27)
            (xy 1.27 -1.27)
            (xy 0 -2.54)
            (xy -1.27 -1.27)
            (xy 0 -1.27)
          )
          (stroke (width 0) (type default) (color 0 0 0 0))
          (fill (type none))
        )
      )
      (symbol "GND_1_1"
        (pin power_in line (at 0 0 270) (length 0) hide
          (name "GND" (effects (font (size 1.27 1.27))))
          (number "1" (effects (font (size 1.27 1.27))))
        )
      )
    )
  )

  (junction (at 90.17 99.06) (diameter 0) (color 0 0 0 0)
    (uuid 00c99228-7699-456b-ac8c-4a3cd400e7f0)
  )
  (junction (at 223.52 130.81) (diameter 0) (color 0 0 0 0)
    (uuid 0237ca31-df70-4a13-b90c-28339d8bf8ce)
  )
  (junction (at 186.69 109.22) (diameter 0) (color 0 0 0 0)
    (uuid 04007d47-4c89-48d3-9788-8155c765b835)
  )
  (junction (at 144.78 99.06) (diameter 0) (color 0 0 0 0)
    (uuid 0c8d9671-ae8f-470e-a308-9f468269cf99)
  )
  (junction (at 213.36 109.22) (diameter 0) (color 0 0 0 0)
    (uuid 2032539e-19e9-4fc9-8dd5-e851e891e2a7)
  )
  (junction (at 160.02 109.22) (diameter 0) (color 0 0 0 0)
    (uuid 2264fe8b-d409-4445-9a68-c01d1adf31bc)
  )
  (junction (at 62.23 148.59) (diameter 0) (color 0 0 0 0)
    (uuid 22c77d17-36c6-43da-9c42-642f6242300c)
  )
  (junction (at 147.32 130.81) (diameter 0) (color 0 0 0 0)
    (uuid 2a1dacd8-3cab-4cbe-b6e9-8e0af3a20a96)
  )
  (junction (at 105.41 99.06) (diameter 0) (color 0 0 0 0)
    (uuid 31ce10a3-252f-4885-ae1e-ac9280e36ac9)
  )
  (junction (at 87.63 73.66) (diameter 0) (color 0 0 0 0)
    (uuid 433d6bf0-6480-4e30-a01a-83bdaf888645)
  )
  (junction (at 160.02 130.81) (diameter 0) (color 0 0 0 0)
    (uuid 56b82801-0d49-4261-b687-5fbecbbf0c22)
  )
  (junction (at 133.35 130.81) (diameter 0) (color 0 0 0 0)
    (uuid 61acc469-80b0-4807-a34f-a7514673edc1)
  )
  (junction (at 72.39 99.06) (diameter 0) (color 0 0 0 0)
    (uuid 636cbcb5-01d8-46de-9db8-eca872b96644)
  )
  (junction (at 223.52 109.22) (diameter 0) (color 0 0 0 0)
    (uuid 744c25fe-7bcf-4b36-b0f5-f2dc19829acf)
  )
  (junction (at 175.26 130.81) (diameter 0) (color 0 0 0 0)
    (uuid 7fbbdd4d-a746-4edd-bf07-64748faabff8)
  )
  (junction (at 170.18 130.81) (diameter 0) (color 0 0 0 0)
    (uuid a26c63d6-b10b-42bb-86e3-7e5bb0c92f03)
  )
  (junction (at 147.32 111.76) (diameter 0) (color 0 0 0 0)
    (uuid ac737125-4280-4491-ad31-405cbde7bb4d)
  )
  (junction (at 144.78 101.6) (diameter 0) (color 0 0 0 0)
    (uuid aeeaa04e-bf81-410e-840a-55b32ce4d943)
  )
  (junction (at 46.99 106.68) (diameter 0) (color 0 0 0 0)
    (uuid b0a506f0-c5cd-4ecd-a972-d91f211dbe22)
  )
  (junction (at 74.93 148.59) (diameter 0) (color 0 0 0 0)
    (uuid be7f715b-9d9c-46a0-9e07-73187bdaf090)
  )
  (junction (at 121.92 99.06) (diameter 0) (color 0 0 0 0)
    (uuid c02be8cc-1759-4064-951d-78759edb9d40)
  )
  (junction (at 96.52 99.06) (diameter 0) (color 0 0 0 0)
    (uuid c276d780-f959-425c-b012-e579136aa482)
  )
  (junction (at 68.58 148.59) (diameter 0) (color 0 0 0 0)
    (uuid c5533b1d-2799-4e9e-9cef-45c847704c27)
  )
  (junction (at 180.34 130.81) (diameter 0) (color 0 0 0 0)
    (uuid cc901672-5dc2-42f6-982d-b887d2c1fd9a)
  )
  (junction (at 237.49 149.86) (diameter 0) (color 0 0 0 0)
    (uuid cf7a7b13-93a7-4bd0-986b-ca645b7453b6)
  )
  (junction (at 180.34 109.22) (diameter 0) (color 0 0 0 0)
    (uuid e3ae14b6-a709-40e0-83fe-d871d372d7ae)
  )
  (junction (at 213.36 130.81) (diameter 0) (color 0 0 0 0)
    (uuid e4dd8610-b609-466c-873e-93a28a272d7d)
  )
  (junction (at 170.18 109.22) (diameter 0) (color 0 0 0 0)
    (uuid e8f92aaa-c1e4-46c0-9535-971f514aace9)
  )
  (junction (at 114.3 73.66) (diameter 0) (color 0 0 0 0)
    (uuid ec01469d-48de-4149-8fd0-2840c0d468b7)
  )
  (junction (at 220.98 149.86) (diameter 0) (color 0 0 0 0)
    (uuid f49ced38-c276-490f-a238-cd18046aa3b8)
  )
  (junction (at 203.2 109.22) (diameter 0) (color 0 0 0 0)
    (uuid f9942d70-9bd5-4d62-9426-40627e58237e)
  )

  (no_connect (at 66.04 104.14) (uuid 3c0dd243-8b11-4704-91c4-ce39c6d38bc2))

  (wire (pts (xy 144.78 99.06) (xy 144.78 87.63))
    (stroke (width 0) (type default) (color 0 0 0 0))
    (uuid 00206748-ffbc-4eb3-a898-13cb7a1a0ebc)
  )
  (wire (pts (xy 133.35 130.81) (xy 147.32 130.81))
    (stroke (width 0) (type default) (color 0 0 0 0))
    (uuid 00e3252e-e9f9-437a-971b-5c5e3c5e0e5e)
  )
  (wire (pts (xy 160.02 130.81) (xy 160.02 123.19))
    (stroke (width 0) (type default) (color 0 0 0 0))
    (uuid 0170eddb-b941-4cb8-a0cc-1fd8ff8c6944)
  )
  (wire (pts (xy 68.58 147.32) (xy 68.58 148.59))
    (stroke (width 0) (type default) (color 0 0 0 0))
    (uuid 03785f9e-d7db-42a0-a574-b0a898a67887)
  )
  (wire (pts (xy 76.2 73.66) (xy 72.39 73.66))
    (stroke (width 0) (type default) (color 0 0 0 0))
    (uuid 0d5f7c12-536b-482e-a8a0-65dc7f39bfbc)
  )
  (wire (pts (xy 90.17 99.06) (xy 90.17 102.87))
    (stroke (width 0) (type default) (color 0 0 0 0))
    (uuid 133b4c73-49f0-4541-be4d-b2527a1e6a41)
  )
  (wire (pts (xy 123.19 109.22) (xy 115.57 109.22))
    (stroke (width 0) (type default) (color 0 0 0 0))
    (uuid 170baf96-fa52-447f-93cb-43a4d1732cd4)
  )
  (wire (pts (xy 223.52 123.19) (xy 223.52 130.81))
    (stroke (width 0) (type default) (color 0 0 0 0))
    (uuid 187f5610-4ddb-4157-b7f1-746bf9e3dece)
  )
  (wire (pts (xy 220.98 149.86) (xy 220.98 151.13))
    (stroke (width 0) (type default) (color 0 0 0 0))
    (uuid 1a077937-e67d-4908-9f2e-2944fb074b20)
  )
  (wire (pts (xy 223.52 130.81) (xy 237.49 130.81))
    (stroke (width 0) (type default) (color 0 0 0 0))
    (uuid 1ba7d030-9296-4b34-b77b-2c3bc983a828)
  )
  (wire (pts (xy 55.88 101.6) (xy 44.45 101.6))
    (stroke (width 0) (type default) (color 0 0 0 0))
    (uuid 1de50953-325f-4304-b483-8e4ee3126abd)
  )
  (wire (pts (xy 115.57 109.22) (xy 115.57 118.11))
    (stroke (width 0) (type default) (color 0 0 0 0))
    (uuid 1edc3eed-6339-455e-acc4-ea439edc5a39)
  )
  (wire (pts (xy 151.13 101.6) (xy 147.32 101.6))
    (stroke (width 0) (type default) (color 0 0 0 0))
    (uuid 232b6d30-a523-44d0-8d70-85b6bc3690ff)
  )
  (wire (pts (xy 213.36 109.22) (xy 223.52 109.22))
    (stroke (width 0) (type default) (color 0 0 0 0))
    (uuid 2690cae8-dabf-44fa-a373-bd5e93d81b9e)
  )
  (wire (pts (xy 160.02 109.22) (xy 160.02 118.11))
    (stroke (width 0) (type default) (color 0 0 0 0))
    (uuid 2cb51a80-b4af-4cc0-90eb-d469467b0460)
  )
  (wire (pts (xy 213.36 130.81) (xy 223.52 130.81))
    (stroke (width 0) (type default) (color 0 0 0 0))
    (uuid 3034f1bc-28d7-43fd-bafb-9de7e74a0fca)
  )
  (wire (pts (xy 62.23 148.59) (xy 68.58 148.59))
    (stroke (width 0) (type default) (color 0 0 0 0))
    (uuid 31061cf9-5a2c-4f5d-94fa-c15e903cec29)
  )
  (wire (pts (xy 96.52 73.66) (xy 101.6 73.66))
    (stroke (width 0) (type default) (color 0 0 0 0))
    (uuid 34faf9e4-c087-46f7-b55b-c1cf733388ed)
  )
  (wire (pts (xy 123.19 99.06) (xy 121.92 99.06))
    (stroke (width 0) (type default) (color 0 0 0 0))
    (uuid 3a86515d-6cdc-4651-b0bc-e6a411e3583d)
  )
  (wire (pts (xy 46.99 106.68) (xy 46.99 110.49))
    (stroke (width 0) (type default) (color 0 0 0 0))
    (uuid 3fd05312-60e8-45d6-a866-33505ad9c1b0)
  )
  (wire (pts (xy 114.3 77.47) (xy 114.3 73.66))
    (stroke (width 0) (type default) (color 0 0 0 0))
    (uuid 418d7e69-6c28-457e-858d-08e34c7b103f)
  )
  (wire (pts (xy 186.69 109.22) (xy 203.2 109.22))
    (stroke (width 0) (type default) (color 0 0 0 0))
    (uuid 47f359ca-da8c-4597-afec-34235d779d43)
  )
  (wire (pts (xy 144.78 101.6) (xy 144.78 99.06))
    (stroke (width 0) (type default) (color 0 0 0 0))
    (uuid 49fd96f5-86f6-448a-8ec0-007a2d5a3ba3)
  )
  (wire (pts (xy 74.93 148.59) (xy 74.93 149.86))
    (stroke (width 0) (type default) (color 0 0 0 0))
    (uuid 4cbfdb53-7948-48a9-8f7b-5ee184f6bb9d)
  )
  (wire (pts (xy 220.98 156.21) (xy 220.98 157.48))
    (stroke (width 0) (type default) (color 0 0 0 0))
    (uuid 4ce74c07-c376-4ade-b2cf-ff459a3efab6)
  )
  (wire (pts (xy 156.21 101.6) (xy 186.69 101.6))
    (stroke (width 0) (type default) (color 0 0 0 0))
    (uuid 4ced1251-2358-4986-a18d-12ef9bafb186)
  )
  (wire (pts (xy 144.78 104.14) (xy 144.78 101.6))
    (stroke (width 0) (type default) (color 0 0 0 0))
    (uuid 4d1a2cc2-e993-4ffb-9e26-a9d5eac96390)
  )
  (wire (pts (xy 170.18 123.19) (xy 170.18 130.81))
    (stroke (width 0) (type default) (color 0 0 0 0))
    (uuid 4e4171ec-a072-48d4-b2a3-32ccc6a90336)
  )
  (wire (pts (xy 87.63 80.01) (xy 87.63 81.28))
    (stroke (width 0) (type default) (color 0 0 0 0))
    (uuid 4f4b85f5-607a-4678-a584-17932b925300)
  )
  (wire (pts (xy 115.57 123.19) (xy 115.57 130.81))
    (stroke (width 0) (type default) (color 0 0 0 0))
    (uuid 5256c9fa-c8b2-4a9e-844d-550f907aefd0)
  )
  (wire (pts (xy 147.32 130.81) (xy 160.02 130.81))
    (stroke (width 0) (type default) (color 0 0 0 0))
    (uuid 5262345b-dd42-4d1d-a129-a0b8f4789916)
  )
  (wire (pts (xy 105.41 107.95) (xy 105.41 113.03))
    (stroke (width 0) (type default) (color 0 0 0 0))
    (uuid 549092cf-be4c-4226-acce-cd09e44e1aa6)
  )
  (wire (pts (xy 213.36 109.22) (xy 213.36 118.11))
    (stroke (width 0) (type default) (color 0 0 0 0))
    (uuid 556682ed-108c-4d0f-bced-f76d19c6147a)
  )
  (wire (pts (xy 87.63 73.66) (xy 87.63 74.93))
    (stroke (width 0) (type default) (color 0 0 0 0))
    (uuid 562441e4-099d-44a9-b12f-209c338be3fa)
  )
  (wire (pts (xy 133.35 116.84) (xy 133.35 130.81))
    (stroke (width 0) (type default) (color 0 0 0 0))
    (uuid 5cb27376-bd42-437b-a9ea-449b81389eb3)
  )
  (wire (pts (xy 72.39 73.66) (xy 72.39 99.06))
    (stroke (width 0) (type default) (color 0 0 0 0))
    (uuid 5db54ab7-d0a6-4043-befd-e6836d226374)
  )
  (wire (pts (xy 147.32 111.76) (xy 143.51 111.76))
    (stroke (width 0) (type default) (color 0 0 0 0))
    (uuid 5e77b311-675e-41ec-8fbf-6f0a4ed0ead8)
  )
  (wire (pts (xy 130.81 87.63) (xy 121.92 87.63))
    (stroke (width 0) (type default) (color 0 0 0 0))
    (uuid 65ba9f59-5d8b-402b-88a8-152d54a2857c)
  )
  (wire (pts (xy 237.49 151.13) (xy 237.49 149.86))
    (stroke (width 0) (type default) (color 0 0 0 0))
    (uuid 65f9795e-ccf1-4962-8b62-5445db009bbe)
  )
  (wire (pts (xy 87.63 67.31) (xy 87.63 73.66))
    (stroke (width 0) (type default) (color 0 0 0 0))
    (uuid 66c9455f-f6d3-4b00-8e8f-2dc82171b348)
  )
  (wire (pts (xy 143.51 101.6) (xy 144.78 101.6))
    (stroke (width 0) (type default) (color 0 0 0 0))
    (uuid 7332cdc9-0e9a-441c-889a-df2f3eee3ad6)
  )
  (wire (pts (xy 121.92 87.63) (xy 121.92 99.06))
    (stroke (width 0) (type default) (color 0 0 0 0))
    (uuid 736ccce9-7ee4-46fc-bc38-b684ff0b76ae)
  )
  (wire (pts (xy 46.99 104.14) (xy 46.99 106.68))
    (stroke (width 0) (type default) (color 0 0 0 0))
    (uuid 747f89e1-111d-4735-822f-16de1ce8db4f)
  )
  (wire (pts (xy 74.93 148.59) (xy 74.93 147.32))
    (stroke (width 0) (type default) (color 0 0 0 0))
    (uuid 751a8923-2c9c-4979-87e9-484c8acf1f3d)
  )
  (wire (pts (xy 121.92 99.06) (xy 105.41 99.06))
    (stroke (width 0) (type default) (color 0 0 0 0))
    (uuid 76e7fb01-580d-4635-a0f5-7c7d5a38722b)
  )
  (wire (pts (xy 144.78 87.63) (xy 135.89 87.63))
    (stroke (width 0) (type default) (color 0 0 0 0))
    (uuid 78c7db24-139e-4abf-9cef-da710a9a3c76)
  )
  (wire (pts (xy 203.2 109.22) (xy 203.2 123.19))
    (stroke (width 0) (type default) (color 0 0 0 0))
    (uuid 7f9856a2-720c-4393-861f-b807790f1293)
  )
  (wire (pts (xy 213.36 123.19) (xy 213.36 130.81))
    (stroke (width 0) (type default) (color 0 0 0 0))
    (uuid 8222cef0-491d-4595-b940-dbaf62c9a408)
  )
  (wire (pts (xy 170.18 118.11) (xy 170.18 109.22))
    (stroke (width 0) (type default) (color 0 0 0 0))
    (uuid 86482991-be80-416e-885a-acc1ade54ba3)
  )
  (wire (pts (xy 44.45 106.68) (xy 46.99 106.68))
    (stroke (width 0) (type default) (color 0 0 0 0))
    (uuid 89025e62-2aed-4bc0-ba59-6fbb1616c777)
  )
  (wire (pts (xy 210.82 149.86) (xy 175.26 149.86))
    (stroke (width 0) (type default) (color 0 0 0 0))
    (uuid 90ada3d5-9e86-443d-a398-ec3daf3a5a10)
  )
  (wire (pts (xy 105.41 102.87) (xy 105.41 99.06))
    (stroke (width 0) (type default) (color 0 0 0 0))
    (uuid 90bd79b2-abb1-4938-bdd1-df76953561e5)
  )
  (wire (pts (xy 170.18 130.81) (xy 160.02 130.81))
    (stroke (width 0) (type default) (color 0 0 0 0))
    (uuid 9105f4bf-601b-4151-8943-b125cccf51a3)
  )
  (wire (pts (xy 223.52 109.22) (xy 223.52 118.11))
    (stroke (width 0) (type default) (color 0 0 0 0))
    (uuid 94942d31-e43e-4b4e-bafd-9e8a79b94279)
  )
  (wire (pts (xy 170.18 109.22) (xy 168.91 109.22))
    (stroke (width 0) (type default) (color 0 0 0 0))
    (uuid 9637fbd1-4cce-4548-b6a9-1d5194bc6b48)
  )
  (wire (pts (xy 215.9 149.86) (xy 220.98 149.86))
    (stroke (width 0) (type default) (color 0 0 0 0))
    (uuid 9703e360-977d-4c3b-9ca6-19eb66de762b)
  )
  (wire (pts (xy 180.34 109.22) (xy 180.34 118.11))
    (stroke (width 0) (type default) (color 0 0 0 0))
    (uuid 9a40d960-cabf-4f0f-a18a-384914842e1e)
  )
  (wire (pts (xy 237.49 109.22) (xy 223.52 109.22))
    (stroke (width 0) (type default) (color 0 0 0 0))
    (uuid 9bde5faa-fb2f-4c06-9ec4-af7699c19dd3)
  )
  (wire (pts (xy 62.23 147.32) (xy 62.23 148.59))
    (stroke (width 0) (type default) (color 0 0 0 0))
    (uuid a08e7dd6-403b-47a4-9733-912ef2e2ba26)
  )
  (wire (pts (xy 96.52 99.06) (xy 90.17 99.06))
    (stroke (width 0) (type default) (color 0 0 0 0))
    (uuid a5c15a7c-76fa-42ed-9ebb-8d9132a93ae1)
  )
  (wire (pts (xy 195.58 130.81) (xy 180.34 130.81))
    (stroke (width 0) (type default) (color 0 0 0 0))
    (uuid a6a2db86-803a-4a1e-8e4b-a836513126e2)
  )
  (wire (pts (xy 160.02 109.22) (xy 161.29 109.22))
    (stroke (width 0) (type default) (color 0 0 0 0))
    (uuid a7964716-f0e5-40b5-b5f2-3c617fd758ea)
  )
  (wire (pts (xy 106.68 73.66) (xy 114.3 73.66))
    (stroke (width 0) (type default) (color 0 0 0 0))
    (uuid a90d88c3-04ee-4091-bcd0-244b4fe5c23c)
  )
  (wire (pts (xy 147.32 128.27) (xy 147.32 130.81))
    (stroke (width 0) (type default) (color 0 0 0 0))
    (uuid aacd58a4-a12e-48c4-8dda-e16e4bd6517a)
  )
  (wire (pts (xy 143.51 99.06) (xy 144.78 99.06))
    (stroke (width 0) (type default) (color 0 0 0 0))
    (uuid ab8bfeca-4177-429a-9dc2-b0d5ac74edc1)
  )
  (wire (pts (xy 143.51 109.22) (xy 160.02 109.22))
    (stroke (width 0) (type default) (color 0 0 0 0))
    (uuid b6347da7-d06d-4765-b84a-5596209ac167)
  )
  (wire (pts (xy 55.88 147.32) (xy 55.88 148.59))
    (stroke (width 0) (type default) (color 0 0 0 0))
    (uuid b69c47eb-c5d6-4842-92a5-d30e1ce94caf)
  )
  (wire (pts (xy 186.69 101.6) (xy 186.69 109.22))
    (stroke (width 0) (type default) (color 0 0 0 0))
    (uuid b8e79a3f-9154-4261-b231-474a1036499b)
  )
  (wire (pts (xy 96.52 73.66) (xy 96.52 99.06))
    (stroke (width 0) (type default) (color 0 0 0 0))
    (uuid b9d937f1-e079-4c88-805d-b87c9c01a663)
  )
  (wire (pts (xy 72.39 99.06) (xy 66.04 99.06))
    (stroke (width 0) (type default) (color 0 0 0 0))
    (uuid bbf126c5-a47b-47a9-87d6-e0b89bdba0b6)
  )
  (wire (pts (xy 237.49 156.21) (xy 237.49 157.48))
    (stroke (width 0) (type default) (color 0 0 0 0))
    (uuid be210f01-97e5-45c2-a2c6-74b23075b187)
  )
  (wire (pts (xy 237.49 109.22) (xy 237.49 111.76))
    (stroke (width 0) (type default) (color 0 0 0 0))
    (uuid bf529ea6-6874-460d-be54-819f1f650b60)
  )
  (wire (pts (xy 114.3 82.55) (xy 114.3 83.82))
    (stroke (width 0) (type default) (color 0 0 0 0))
    (uuid bf6894af-6c09-4e9a-9bc3-0490deea2358)
  )
  (wire (pts (xy 213.36 130.81) (xy 210.82 130.81))
    (stroke (width 0) (type default) (color 0 0 0 0))
    (uuid c2bd2f9f-e143-494e-ba5f-c9e4875ebfad)
  )
  (wire (pts (xy 72.39 99.06) (xy 90.17 99.06))
    (stroke (width 0) (type default) (color 0 0 0 0))
    (uuid c4a62a9a-4f7b-4371-ae5b-e06a0de778d7)
  )
  (wire (pts (xy 237.49 149.86) (xy 237.49 147.32))
    (stroke (width 0) (type default) (color 0 0 0 0))
    (uuid c4e405df-b6c2-4c58-99a7-2064d6958476)
  )
  (wire (pts (xy 115.57 130.81) (xy 133.35 130.81))
    (stroke (width 0) (type default) (color 0 0 0 0))
    (uuid c72823fe-37a0-4b7d-a9a3-8a8bc1187752)
  )
  (wire (pts (xy 44.45 104.14) (xy 46.99 104.14))
    (stroke (width 0) (type default) (color 0 0 0 0))
    (uuid ce30bf94-bf72-47ec-94fd-70b3d5746d05)
  )
  (wire (pts (xy 175.26 130.81) (xy 170.18 130.81))
    (stroke (width 0) (type default) (color 0 0 0 0))
    (uuid cf790897-4356-4c72-a6b1-db3c356d994c)
  )
  (wire (pts (xy 143.51 104.14) (xy 144.78 104.14))
    (stroke (width 0) (type default) (color 0 0 0 0))
    (uuid d7196342-43ce-44a3-9f86-9fba82544183)
  )
  (wire (pts (xy 147.32 101.6) (xy 147.32 111.76))
    (stroke (width 0) (type default) (color 0 0 0 0))
    (uuid dc63f69c-56a4-4a2d-9ae6-92dcc5d5deaa)
  )
  (wire (pts (xy 147.32 123.19) (xy 147.32 111.76))
    (stroke (width 0) (type default) (color 0 0 0 0))
    (uuid df615c15-38e1-4503-bc89-066c710252e8)
  )
  (wire (pts (xy 186.69 109.22) (xy 180.34 109.22))
    (stroke (width 0) (type default) (color 0 0 0 0))
    (uuid dfa6f045-29af-4c8c-b7ea-ec1f2a0c149b)
  )
  (wire (pts (xy 105.41 99.06) (xy 96.52 99.06))
    (stroke (width 0) (type default) (color 0 0 0 0))
    (uuid e1efa05a-0535-4259-8d8f-e1f3008bb9fe)
  )
  (wire (pts (xy 180.34 130.81) (xy 175.26 130.81))
    (stroke (width 0) (type default) (color 0 0 0 0))
    (uuid e7e95592-d4b9-49de-9da1-488435ba2c05)
  )
  (wire (pts (xy 114.3 73.66) (xy 114.3 67.31))
    (stroke (width 0) (type default) (color 0 0 0 0))
    (uuid ed2188d7-d04e-4ccc-bcab-e535ac40527c)
  )
  (wire (pts (xy 180.34 109.22) (xy 170.18 109.22))
    (stroke (width 0) (type default) (color 0 0 0 0))
    (uuid efa7f200-79a4-441a-914e-631f1a90c3c3)
  )
  (wire (pts (xy 90.17 107.95) (xy 90.17 113.03))
    (stroke (width 0) (type default) (color 0 0 0 0))
    (uuid f213728f-0312-4f81-94a3-366bfb0f0385)
  )
  (wire (pts (xy 203.2 109.22) (xy 213.36 109.22))
    (stroke (width 0) (type default) (color 0 0 0 0))
    (uuid f2d691f6-60bf-4867-a268-fc05c5ad08bf)
  )
  (wire (pts (xy 87.63 73.66) (xy 81.28 73.66))
    (stroke (width 0) (type default) (color 0 0 0 0))
    (uuid f33f09d5-1f70-4ccc-a11c-a428128358cb)
  )
  (wire (pts (xy 175.26 149.86) (xy 175.26 130.81))
    (stroke (width 0) (type default) (color 0 0 0 0))
    (uuid f5170724-b932-4318-ba35-72dbb8cbeb89)
  )
  (wire (pts (xy 180.34 123.19) (xy 180.34 130.81))
    (stroke (width 0) (type default) (color 0 0 0 0))
    (uuid f927c0d2-5d67-40d2-96cc-ea12e7d7f871)
  )
  (wire (pts (xy 55.88 148.59) (xy 62.23 148.59))
    (stroke (width 0) (type default) (color 0 0 0 0))
    (uuid fa604484-4daf-46f1-aedd-96db19c7b207)
  )
  (wire (pts (xy 237.49 130.81) (xy 237.49 125.73))
    (stroke (width 0) (type default) (color 0 0 0 0))
    (uuid faf6d279-e8f9-4911-b274-084dc69f149c)
  )
  (wire (pts (xy 68.58 148.59) (xy 74.93 148.59))
    (stroke (width 0) (type default) (color 0 0 0 0))
    (uuid fcf2eb5c-27cd-4f24-9fba-130c56457729)
  )
  (wire (pts (xy 237.49 149.86) (xy 220.98 149.86))
    (stroke (width 0) (type default) (color 0 0 0 0))
    (uuid fe466b6a-81ba-4a8f-922f-2e478df02857)
  )

  (text "This work is licensed under the Creative Commons\nAttribution-ShareAlike 4.0 International License.\nTo view a copy of this license, visit \nhttp://creativecommons.org/licenses/by-sa/4.0/\nor send a letter to Creative Commons, PO Box 1866,\nMountain View, CA 94042, USA."
    (at 212.09 186.69 0)
    (effects (font (size 1.27 1.27)) (justify left bottom))
    (uuid 3b3ac546-2e49-4c20-a5d3-5a9700d8e7a6)
  )
  (text "Power Section\nBy @TubeTimeUS" (at 162.56 182.88 0)
    (effects (font (size 1.27 1.27)) (justify left bottom))
    (uuid 83906288-8e0c-43eb-ac6b-ad7969d2a9ec)
  )
  (text "5V @ 500mA" (at 33.02 119.38 0)
    (effects (font (size 1.27 1.27)) (justify left bottom))
    (uuid a060eb40-ce10-4156-a3a7-7c666ee3c5e4)
  )
  (text "SCOPETREX" (at 161.29 177.8 0)
    (effects (font (size 2.54 2.54) (thickness 0.508) bold) (justify left bottom))
    (uuid fda9e43e-17ed-4bd0-a127-28f4e7de405b)
  )

  (label "LX" (at 151.13 109.22 0)
    (effects (font (size 1.27 1.27)) (justify left bottom))
    (uuid 72992498-3504-4781-ad1c-ca5f59e95046)
  )

  (symbol (lib_id "Regulator_Linear:LM7905_TO220") (at 203.2 130.81 0) (unit 1)
    (in_bom yes) (on_board yes)
    (uuid 00000000-0000-0000-0000-00005e376767)
    (property "Reference" "U102" (id 0) (at 203.2 134.5946 0))
    (property "Value" "LM7905_TO220" (id 1) (at 203.2 136.906 0))
    (property "Footprint" "TO_SOT_Packages_THT:TO-220-3_Vertical" (id 2) (at 203.2 135.89 0)
      (effects (font (size 1.27 1.27) italic) hide)
    )
    (property "Datasheet" "http://www.fairchildsemi.com/ds/LM/LM7905.pdf" (id 3) (at 203.2 130.81 0)
      (effects (font (size 1.27 1.27)) hide)
    )
    (property "Mouser" "926-LM7905CT/NOPB" (id 4) (at 41.91 241.3 0)
      (effects (font (size 1.27 1.27)) hide)
    )
    (pin "1" (uuid 9845da73-eee1-4e59-bf67-764e02f5c8df))
    (pin "2" (uuid f169dfc2-8f41-40ea-afea-723337853c7f))
    (pin "3" (uuid 306502ea-4263-4652-977d-3fa1e0c82bdf))
  )

  (symbol (lib_id "Scopetrex-rescue:CP_Small-Device") (at 90.17 105.41 0) (unit 1)
    (in_bom yes) (on_board yes)
    (uuid 00000000-0000-0000-0000-00005e378be8)
    (property "Reference" "C109" (id 0) (at 92.4052 104.2416 0)
      (effects (font (size 1.27 1.27)) (justify left))
    )
    (property "Value" "4700uF" (id 1) (at 92.4052 106.553 0)
      (effects (font (size 1.27 1.27)) (justify left))
    )
    (property "Footprint" "Passive:CAPAE750P1600X2500" (id 2) (at 90.17 105.41 0)
      (effects (font (size 1.27 1.27)) hide)
    )
    (property "Datasheet" "~" (id 3) (at 90.17 105.41 0)
      (effects (font (size 1.27 1.27)) hide)
    )
    (property "Mouser" "667-EEU-FS1C472S" (id 4) (at -30.48 208.28 0)
      (effects (font (size 1.27 1.27)) hide)
    )
    (pin "1" (uuid dbe2ed07-cf65-462a-8276-dfbb485938ef))
    (pin "2" (uuid b5c7cd55-2fa6-434e-87be-b21f606abf50))
  )

  (symbol (lib_id "Device:C_Small") (at 115.57 120.65 180) (unit 1)
    (in_bom yes) (on_board yes)
    (uuid 00000000-0000-0000-0000-00005e37fab9)
    (property "Reference" "C101" (id 0) (at 120.65 119.38 0))
    (property "Value" "1000pF" (id 1) (at 121.92 121.92 0))
    (property "Footprint" "Passive:C_Disc_D0.2in_W0.1in_P0.2in" (id 2) (at 115.57 120.65 0)
      (effects (font (size 1.27 1.27)) hide)
    )
    (property "Datasheet" "~" (id 3) (at 115.57 120.65 0)
      (effects (font (size 1.27 1.27)) hide)
    )
    (property "Mouser" "581-SR211A102JAR" (id 4) (at 231.14 45.72 0)
      (effects (font (size 1.27 1.27)) hide)
    )
    (pin "1" (uuid 358f0889-0bc2-4fff-aee6-ccbb33971ed8))
    (pin "2" (uuid 11880f1f-f90e-4f44-a7c4-3f5c09821e23))
  )

  (symbol (lib_id "Device:C_Small") (at 105.41 105.41 180) (unit 1)
    (in_bom yes) (on_board yes)
    (uuid 00000000-0000-0000-0000-00005e381696)
    (property "Reference" "C102" (id 0) (at 110.49 104.14 0))
    (property "Value" "0.1uF" (id 1) (at 110.49 106.68 0))
    (property "Footprint" "Passive:C_Disc_D0.2in_W0.1in_P0.2in" (id 2) (at 105.41 105.41 0)
      (effects (font (size 1.27 1.27)) hide)
    )
    (property "Datasheet" "~" (id 3) (at 105.41 105.41 0)
      (effects (font (size 1.27 1.27)) hide)
    )
    (property "Mouser" "581-SR215C104K" (id 4) (at 220.98 -13.97 0)
      (effects (font (size 1.27 1.27)) hide)
    )
    (pin "1" (uuid b96d9c50-3b63-4262-b174-e75a929aa458))
    (pin "2" (uuid 1c6b2323-1146-4140-8560-273941bb2998))
  )

  (symbol (lib_id "Device:C_Small") (at 114.3 80.01 0) (unit 1)
    (in_bom yes) (on_board yes)
    (uuid 00000000-0000-0000-0000-00005e3836e8)
    (property "Reference" "C111" (id 0) (at 116.6368 78.8416 0)
      (effects (font (size 1.27 1.27)) (justify left))
    )
    (property "Value" "0.1uF" (id 1) (at 116.6368 81.153 0)
      (effects (font (size 1.27 1.27)) (justify left))
    )
    (property "Footprint" "Passive:C_Disc_D0.2in_W0.1in_P0.2in" (id 2) (at 114.3 80.01 0)
      (effects (font (size 1.27 1.27)) hide)
    )
    (property "Datasheet" "~" (id 3) (at 114.3 80.01 0)
      (effects (font (size 1.27 1.27)) hide)
    )
    (property "Mouser" "581-SR215C104K" (id 4) (at -57.15 170.18 0)
      (effects (font (size 1.27 1.27)) hide)
    )
    (pin "1" (uuid 3d587264-1d4d-43ee-a4a5-049a2b2fec3e))
    (pin "2" (uuid 72aedfcc-6120-4697-a3ed-c0a7bb1369dd))
  )

  (symbol (lib_id "Device:C_Small") (at 213.36 120.65 0) (unit 1)
    (in_bom yes) (on_board yes)
    (uuid 00000000-0000-0000-0000-00005e384e57)
    (property "Reference" "C110" (id 0) (at 215.6968 119.4816 0)
      (effects (font (size 1.27 1.27)) (justify left))
    )
    (property "Value" "0.1uF" (id 1) (at 215.6968 121.793 0)
      (effects (font (size 1.27 1.27)) (justify left))
    )
    (property "Footprint" "Passive:C_Disc_D0.2in_W0.1in_P0.2in" (id 2) (at 213.36 120.65 0)
      (effects (font (size 1.27 1.27)) hide)
    )
    (property "Datasheet" "~" (id 3) (at 213.36 120.65 0)
      (effects (font (size 1.27 1.27)) hide)
    )
    (property "Mouser" "581-SR215C104K" (id 4) (at 41.91 223.52 0)
      (effects (font (size 1.27 1.27)) hide)
    )
    (pin "1" (uuid f1c9fac6-a937-481f-8606-b0ee2ee284c4))
    (pin "2" (uuid 8226d833-abbd-4716-823f-56b7340a6cdf))
  )

  (symbol (lib_id "power:+5V") (at 114.3 67.31 0) (unit 1)
    (in_bom yes) (on_board yes)
    (uuid 00000000-0000-0000-0000-00005e386e29)
    (property "Reference" "#PWR0196" (id 0) (at 114.3 71.12 0)
      (effects (font (size 1.27 1.27)) hide)
    )
    (property "Value" "+5V" (id 1) (at 114.681 62.9158 0))
    (property "Footprint" "" (id 2) (at 114.3 67.31 0)
      (effects (font (size 1.27 1.27)) hide)
    )
    (property "Datasheet" "" (id 3) (at 114.3 67.31 0)
      (effects (font (size 1.27 1.27)) hide)
    )
    (pin "1" (uuid 641faff0-09e7-48f2-952c-196040117dd6))
  )

  (symbol (lib_id "Connector:Barrel_Jack_Switch") (at 36.83 104.14 0) (unit 1)
    (in_bom yes) (on_board yes)
    (uuid 00000000-0000-0000-0000-00005e391a5b)
    (property "Reference" "J101" (id 0) (at 38.2778 96.0882 0))
    (property "Value" "5V INPUT" (id 1) (at 38.2778 98.3996 0))
    (property "Footprint" "Conn:CUI_PJ-002B" (id 2) (at 38.1 105.156 0)
      (effects (font (size 1.27 1.27)) hide)
    )
    (property "Datasheet" "~" (id 3) (at 38.1 105.156 0)
      (effects (font (size 1.27 1.27)) hide)
    )
    (property "Mouser" "490-PJ-002B" (id 4) (at -35.56 200.66 0)
      (effects (font (size 1.27 1.27)) hide)
    )
    (pin "1" (uuid b90ec5a3-88d1-4b5b-b084-4241a28a6c11))
    (pin "2" (uuid d49b3303-4b4e-48ca-9d90-dc86bfefa23c))
    (pin "3" (uuid eb667680-ee02-49d4-98c6-d97bd11dc13d))
  )

  (symbol (lib_id "power:GND") (at 46.99 110.49 0) (unit 1)
    (in_bom yes) (on_board yes)
    (uuid 00000000-0000-0000-0000-00005e39429b)
    (property "Reference" "#PWR0198" (id 0) (at 46.99 116.84 0)
      (effects (font (size 1.27 1.27)) hide)
    )
    (property "Value" "GND" (id 1) (at 47.117 114.8842 0))
    (property "Footprint" "" (id 2) (at 46.99 110.49 0)
      (effects (font (size 1.27 1.27)) hide)
    )
    (property "Datasheet" "" (id 3) (at 46.99 110.49 0)
      (effects (font (size 1.27 1.27)) hide)
    )
    (pin "1" (uuid c970a6a2-a517-41d3-acc9-d0980e62617c))
  )

  (symbol (lib_id "Scopetrex-rescue:CP_Small-Device") (at 180.34 120.65 0) (unit 1)
    (in_bom yes) (on_board yes)
    (uuid 00000000-0000-0000-0000-00005e3a25ea)
    (property "Reference" "C104" (id 0) (at 187.96 121.92 0)
      (effects (font (size 1.27 1.27)) (justify right))
    )
    (property "Value" "470uF" (id 1) (at 189.23 119.38 0)
      (effects (font (size 1.27 1.27)) (justify right))
    )
    (property "Footprint" "Passive:CAPAE500P1000X1500" (id 2) (at 180.34 120.65 0)
      (effects (font (size 1.27 1.27)) hide)
    )
    (property "Datasheet" "~" (id 3) (at 180.34 120.65 0)
      (effects (font (size 1.27 1.27)) hide)
    )
    (property "Mouser" "80-ESL477M025AH9AA" (id 4) (at 55.88 176.53 0)
      (effects (font (size 1.27 1.27)) hide)
    )
    (pin "1" (uuid 09cf942f-a254-4e23-982d-20ff3ce9dd09))
    (pin "2" (uuid 1e1d5023-2106-461e-8fb3-9b92bbdc9a31))
  )

  (symbol (lib_id "Device:R_Small_US") (at 213.36 149.86 270) (unit 1)
    (in_bom yes) (on_board yes)
    (uuid 00000000-0000-0000-0000-00005e3a77f6)
    (property "Reference" "R106" (id 0) (at 213.36 144.653 90))
    (property "Value" "100" (id 1) (at 213.36 146.9644 90))
    (property "Footprint" "Passive:RESA500" (id 2) (at 213.36 149.86 0)
      (effects (font (size 1.27 1.27)) hide)
    )
    (property "Datasheet" "~" (id 3) (at 213.36 149.86 0)
      (effects (font (size 1.27 1.27)) hide)
    )
    (property "Mouser" "603-CFR-25JR-52100R" (id 4) (at 161.29 21.59 0)
      (effects (font (size 1.27 1.27)) hide)
    )
    (pin "1" (uuid eade5dc8-03df-4a6b-baad-5a753f97ca82))
    (pin "2" (uuid ed3f9097-7408-4837-844a-4dc501fbb5bc))
  )

  (symbol (lib_id "Scopetrex-rescue:D_Zener_Small_ALT-Device") (at 220.98 153.67 90) (unit 1)
    (in_bom yes) (on_board yes)
    (uuid 00000000-0000-0000-0000-00005e3ab24f)
    (property "Reference" "DZ102" (id 0) (at 222.7072 152.5016 90)
      (effects (font (size 1.27 1.27)) (justify right))
    )
    (property "Value" "13V 400mW" (id 1) (at 222.7072 154.813 90)
      (effects (font (size 1.27 1.27)) (justify right))
    )
    (property "Footprint" "Passive:DIOA500" (id 2) (at 220.98 153.67 90)
      (effects (font (size 1.27 1.27)) hide)
    )
    (property "Datasheet" "~" (id 3) (at 220.98 153.67 90)
      (effects (font (size 1.27 1.27)) hide)
    )
    (property "Mouser" "512-1N4743ATR" (id 4) (at 276.86 289.56 0)
      (effects (font (size 1.27 1.27)) hide)
    )
    (pin "1" (uuid 7986f411-5903-495f-bdeb-c1615371afde))
    (pin "2" (uuid 0c169094-348b-481c-b9b5-b703636248a2))
  )

  (symbol (lib_id "power:GND") (at 220.98 157.48 0) (unit 1)
    (in_bom yes) (on_board yes)
    (uuid 00000000-0000-0000-0000-00005e3b00ad)
    (property "Reference" "#PWR0201" (id 0) (at 220.98 163.83 0)
      (effects (font (size 1.27 1.27)) hide)
    )
    (property "Value" "GND" (id 1) (at 221.107 161.8742 0))
    (property "Footprint" "" (id 2) (at 220.98 157.48 0)
      (effects (font (size 1.27 1.27)) hide)
    )
    (property "Datasheet" "" (id 3) (at 220.98 157.48 0)
      (effects (font (size 1.27 1.27)) hide)
    )
    (pin "1" (uuid b88529fc-f8a5-4230-a027-04f8bb53fa50))
  )

  (symbol (lib_id "Scopetrex-rescue:CP_Small-Device") (at 237.49 153.67 180) (unit 1)
    (in_bom yes) (on_board yes)
    (uuid 00000000-0000-0000-0000-00005e3b2a33)
    (property "Reference" "C122" (id 0) (at 239.7252 152.5016 0)
      (effects (font (size 1.27 1.27)) (justify right))
    )
    (property "Value" "220uF" (id 1) (at 239.7252 154.813 0)
      (effects (font (size 1.27 1.27)) (justify right))
    )
    (property "Footprint" "Passive:CAPAE250P630X1100" (id 2) (at 237.49 153.67 0)
      (effects (font (size 1.27 1.27)) hide)
    )
    (property "Datasheet" "~" (id 3) (at 237.49 153.67 0)
      (effects (font (size 1.27 1.27)) hide)
    )
    (property "Mouser" "647-UVY1E221MED1TD" (id 4) (at 389.89 97.79 0)
      (effects (font (size 1.27 1.27)) hide)
    )
    (pin "1" (uuid d3d81489-171a-4e49-9749-9385df13137e))
    (pin "2" (uuid c58f3226-09d2-4e23-bfa3-5c9eaa697cd2))
  )

  (symbol (lib_id "power:GND") (at 237.49 157.48 0) (unit 1)
    (in_bom yes) (on_board yes)
    (uuid 00000000-0000-0000-0000-00005e3b5c9b)
    (property "Reference" "#PWR0202" (id 0) (at 237.49 163.83 0)
      (effects (font (size 1.27 1.27)) hide)
    )
    (property "Value" "GND" (id 1) (at 237.617 161.8742 0))
    (property "Footprint" "" (id 2) (at 237.49 157.48 0)
      (effects (font (size 1.27 1.27)) hide)
    )
    (property "Datasheet" "" (id 3) (at 237.49 157.48 0)
      (effects (font (size 1.27 1.27)) hide)
    )
    (pin "1" (uuid 753715fc-7f51-4b71-aaa5-fe5d50dffa53))
  )

  (symbol (lib_id "power:-12VA") (at 237.49 147.32 0) (unit 1)
    (in_bom yes) (on_board yes)
    (uuid 00000000-0000-0000-0000-00005e3bb7d0)
    (property "Reference" "#PWR0203" (id 0) (at 237.49 151.13 0)
      (effects (font (size 1.27 1.27)) hide)
    )
    (property "Value" "-12VA" (id 1) (at 237.871 142.9258 0))
    (property "Footprint" "" (id 2) (at 237.49 147.32 0)
      (effects (font (size 1.27 1.27)) hide)
    )
    (property "Datasheet" "" (id 3) (at 237.49 147.32 0)
      (effects (font (size 1.27 1.27)) hide)
    )
    (pin "1" (uuid 23afcbb5-2da6-4963-a651-a8200aed763a))
  )

  (symbol (lib_id "power:+5VA") (at 87.63 67.31 0) (unit 1)
    (in_bom yes) (on_board yes)
    (uuid 00000000-0000-0000-0000-00005e3c3392)
    (property "Reference" "#PWR0204" (id 0) (at 87.63 71.12 0)
      (effects (font (size 1.27 1.27)) hide)
    )
    (property "Value" "+5VA" (id 1) (at 88.011 62.9158 0))
    (property "Footprint" "" (id 2) (at 87.63 67.31 0)
      (effects (font (size 1.27 1.27)) hide)
    )
    (property "Datasheet" "" (id 3) (at 87.63 67.31 0)
      (effects (font (size 1.27 1.27)) hide)
    )
    (pin "1" (uuid e2a05224-128d-4675-963c-d38c499e4a70))
  )

  (symbol (lib_id "Scopetrex-rescue:Ferrite_Bead_Small-Device") (at 104.14 73.66 270) (unit 1)
    (in_bom yes) (on_board yes)
    (uuid 00000000-0000-0000-0000-00005e3c411d)
    (property "Reference" "FB202" (id 0) (at 104.14 67.6402 90))
    (property "Value" "96Ω @ 25MHz" (id 1) (at 104.14 69.9516 90))
    (property "Footprint" "Passive:FB254" (id 2) (at 104.14 71.882 90)
      (effects (font (size 1.27 1.27)) hide)
    )
    (property "Datasheet" "~" (id 3) (at 104.14 73.66 0)
      (effects (font (size 1.27 1.27)) hide)
    )
    (property "Mouser" "623-2743007112" (id 4) (at 20.32 -113.03 0)
      (effects (font (size 1.27 1.27)) hide)
    )
    (pin "1" (uuid a459bd38-89f2-4aac-8aec-d9227140ae1c))
    (pin "2" (uuid 5b3f116b-8549-45dd-9f8a-591a3d971e2e))
  )

  (symbol (lib_id "Scopetrex-rescue:CP_Small-Device") (at 223.52 120.65 0) (unit 1)
    (in_bom yes) (on_board yes)
    (uuid 00000000-0000-0000-0000-00005e3d0b1a)
    (property "Reference" "C213" (id 0) (at 225.7552 119.4816 0)
      (effects (font (size 1.27 1.27)) (justify left))
    )
    (property "Value" "100uF" (id 1) (at 225.7552 121.793 0)
      (effects (font (size 1.27 1.27)) (justify left))
    )
    (property "Footprint" "Passive:CAPAE200P500X1100" (id 2) (at 223.52 120.65 0)
      (effects (font (size 1.27 1.27)) hide)
    )
    (property "Datasheet" "~" (id 3) (at 223.52 120.65 0)
      (effects (font (size 1.27 1.27)) hide)
    )
    (property "Mouser" "647-UVY1E101MDD1TD" (id 4) (at 41.91 224.79 0)
      (effects (font (size 1.27 1.27)) hide)
    )
    (pin "1" (uuid 487b70b9-1c29-407c-8ade-2c2f84c0a7e3))
    (pin "2" (uuid c145fd8d-e9fe-43e8-b067-61033d4eda95))
  )

  (symbol (lib_id "power:-5VA") (at 237.49 125.73 0) (unit 1)
    (in_bom yes) (on_board yes)
    (uuid 00000000-0000-0000-0000-00005e510490)
    (property "Reference" "#PWR0197" (id 0) (at 237.49 123.19 0)
      (effects (font (size 1.27 1.27)) hide)
    )
    (property "Value" "-5VA" (id 1) (at 237.871 121.3358 0))
    (property "Footprint" "" (id 2) (at 237.49 125.73 0)
      (effects (font (size 1.27 1.27)) hide)
    )
    (property "Datasheet" "" (id 3) (at 237.49 125.73 0)
      (effects (font (size 1.27 1.27)) hide)
    )
    (pin "1" (uuid 136fe155-7454-446c-94c5-b3cc6e667b59))
  )

  (symbol (lib_id "Mechanical:MountingHole_Pad") (at 55.88 144.78 0) (unit 1)
    (in_bom yes) (on_board yes)
    (uuid 00000000-0000-0000-0000-00005e75ab88)
    (property "Reference" "MNT1" (id 0) (at 53.34 139.7 0)
      (effects (font (size 1.27 1.27)) (justify left))
    )
    (property "Value" "MountingHole_Pad" (id 1) (at 58.42 145.8468 0)
      (effects (font (size 1.27 1.27)) (justify left) hide)
    )
    (property "Footprint" "Mounting_Holes:MountingHole_3.5mm_Pad" (id 2) (at 55.88 144.78 0)
      (effects (font (size 1.27 1.27)) hide)
    )
    (property "Datasheet" "~" (id 3) (at 55.88 144.78 0)
      (effects (font (size 1.27 1.27)) hide)
    )
    (pin "1" (uuid eaa6343d-9b73-44e1-863e-83caadf62818))
  )

  (symbol (lib_id "Mechanical:MountingHole_Pad") (at 62.23 144.78 0) (unit 1)
    (in_bom yes) (on_board yes)
    (uuid 00000000-0000-0000-0000-00005e75cafa)
    (property "Reference" "MNT2" (id 0) (at 59.69 139.7 0)
      (effects (font (size 1.27 1.27)) (justify left))
    )
    (property "Value" "MountingHole_Pad" (id 1) (at 64.77 145.8468 0)
      (effects (font (size 1.27 1.27)) (justify left) hide)
    )
    (property "Footprint" "Mounting_Holes:MountingHole_3.5mm_Pad" (id 2) (at 62.23 144.78 0)
      (effects (font (size 1.27 1.27)) hide)
    )
    (property "Datasheet" "~" (id 3) (at 62.23 144.78 0)
      (effects (font (size 1.27 1.27)) hide)
    )
    (pin "1" (uuid e9c2191e-d7ec-4f83-b58d-ce9f9061eaa5))
  )

  (symbol (lib_id "Mechanical:MountingHole_Pad") (at 68.58 144.78 0) (unit 1)
    (in_bom yes) (on_board yes)
    (uuid 00000000-0000-0000-0000-00005e75d0a1)
    (property "Reference" "MNT3" (id 0) (at 66.04 139.7 0)
      (effects (font (size 1.27 1.27)) (justify left))
    )
    (property "Value" "MountingHole_Pad" (id 1) (at 71.12 145.8468 0)
      (effects (font (size 1.27 1.27)) (justify left) hide)
    )
    (property "Footprint" "Mounting_Holes:MountingHole_3.5mm_Pad" (id 2) (at 68.58 144.78 0)
      (effects (font (size 1.27 1.27)) hide)
    )
    (property "Datasheet" "~" (id 3) (at 68.58 144.78 0)
      (effects (font (size 1.27 1.27)) hide)
    )
    (pin "1" (uuid 1e35408b-31e2-4175-9c83-3fca0fd8ea5f))
  )

  (symbol (lib_id "Mechanical:MountingHole_Pad") (at 74.93 144.78 0) (unit 1)
    (in_bom yes) (on_board yes)
    (uuid 00000000-0000-0000-0000-00005e75d609)
    (property "Reference" "MNT4" (id 0) (at 72.39 139.7 0)
      (effects (font (size 1.27 1.27)) (justify left))
    )
    (property "Value" "MountingHole_Pad" (id 1) (at 77.47 145.8468 0)
      (effects (font (size 1.27 1.27)) (justify left) hide)
    )
    (property "Footprint" "Mounting_Holes:MountingHole_3.5mm_Pad" (id 2) (at 74.93 144.78 0)
      (effects (font (size 1.27 1.27)) hide)
    )
    (property "Datasheet" "~" (id 3) (at 74.93 144.78 0)
      (effects (font (size 1.27 1.27)) hide)
    )
    (pin "1" (uuid 482953bd-6076-4a4b-a4ab-61eef14c4d07))
  )

  (symbol (lib_id "power:GND") (at 74.93 149.86 0) (unit 1)
    (in_bom yes) (on_board yes)
    (uuid 00000000-0000-0000-0000-00005e764442)
    (property "Reference" "#PWR0222" (id 0) (at 74.93 156.21 0)
      (effects (font (size 1.27 1.27)) hide)
    )
    (property "Value" "GND" (id 1) (at 75.057 154.2542 0))
    (property "Footprint" "" (id 2) (at 74.93 149.86 0)
      (effects (font (size 1.27 1.27)) hide)
    )
    (property "Datasheet" "" (id 3) (at 74.93 149.86 0)
      (effects (font (size 1.27 1.27)) hide)
    )
    (pin "1" (uuid 477908e8-502e-4cf8-9ec5-ecaec6012524))
  )

  (symbol (lib_id "Scopetrex-rescue:Ferrite_Bead_Small-Device") (at 78.74 73.66 270) (unit 1)
    (in_bom yes) (on_board yes)
    (uuid 00000000-0000-0000-0000-0000603b052c)
    (property "Reference" "FB203" (id 0) (at 78.74 67.6402 90))
    (property "Value" "96Ω @ 25MHz" (id 1) (at 78.74 69.9516 90))
    (property "Footprint" "Passive:FB254" (id 2) (at 78.74 71.882 90)
      (effects (font (size 1.27 1.27)) hide)
    )
    (property "Datasheet" "~" (id 3) (at 78.74 73.66 0)
      (effects (font (size 1.27 1.27)) hide)
    )
    (property "Mouser" "623-2743007112" (id 4) (at 12.7 -113.03 0)
      (effects (font (size 1.27 1.27)) hide)
    )
    (pin "1" (uuid 45e18f78-4990-4b9a-b225-5ca10fd4d78a))
    (pin "2" (uuid 63c9dfa9-2522-46dd-9040-038bc0f357c2))
  )

  (symbol (lib_id "Regulator_Switching:MC33063AD") (at 133.35 104.14 0) (unit 1)
    (in_bom yes) (on_board yes)
    (uuid 00000000-0000-0000-0000-000062398c25)
    (property "Reference" "U101" (id 0) (at 133.35 92.2782 0))
    (property "Value" "MC34063EBN" (id 1) (at 133.35 94.5896 0))
    (property "Footprint" "Active:DIP254P762X635-8" (id 2) (at 134.62 115.57 0)
      (effects (font (size 1.27 1.27)) (justify left) hide)
    )
    (property "Datasheet" "" (id 3) (at 146.05 106.68 0)
      (effects (font (size 1.27 1.27)) hide)
    )
    (property "Mouser" "511-MC34063EBN" (id 4) (at 133.35 104.14 0)
      (effects (font (size 1.27 1.27)) hide)
    )
    (pin "1" (uuid 22a50452-c229-40c2-bdbd-ab227ceb7e74))
    (pin "2" (uuid 25baeeb4-9318-4480-9bb2-0e4971b8a778))
    (pin "3" (uuid e2e97cfd-42ad-46e1-bbd8-3d147471facd))
    (pin "4" (uuid da210fc5-451a-4d1a-914c-62aace538a8a))
    (pin "5" (uuid 803d7bc6-54db-47e0-b151-ac212a9ca92a))
    (pin "6" (uuid e91dfc50-bd34-40f7-8c1f-b9b81614f4da))
    (pin "7" (uuid 8aa7dd8d-b439-4193-a09e-72414bcadea5))
    (pin "8" (uuid 926e0c0a-e16e-4dff-81f1-e839ead97886))
  )

  (symbol (lib_id "power:GND") (at 90.17 113.03 0) (unit 1)
    (in_bom yes) (on_board yes)
    (uuid 00000000-0000-0000-0000-00006239f00b)
    (property "Reference" "#PWR0229" (id 0) (at 90.17 119.38 0)
      (effects (font (size 1.27 1.27)) hide)
    )
    (property "Value" "GND" (id 1) (at 90.297 117.4242 0))
    (property "Footprint" "" (id 2) (at 90.17 113.03 0)
      (effects (font (size 1.27 1.27)) hide)
    )
    (property "Datasheet" "" (id 3) (at 90.17 113.03 0)
      (effects (font (size 1.27 1.27)) hide)
    )
    (pin "1" (uuid bb518566-d342-4f34-a3d9-e05a69933f71))
  )

  (symbol (lib_id "power:GND") (at 105.41 113.03 0) (unit 1)
    (in_bom yes) (on_board yes)
    (uuid 00000000-0000-0000-0000-0000623b2251)
    (property "Reference" "#PWR0230" (id 0) (at 105.41 119.38 0)
      (effects (font (size 1.27 1.27)) hide)
    )
    (property "Value" "GND" (id 1) (at 105.537 117.4242 0))
    (property "Footprint" "" (id 2) (at 105.41 113.03 0)
      (effects (font (size 1.27 1.27)) hide)
    )
    (property "Datasheet" "" (id 3) (at 105.41 113.03 0)
      (effects (font (size 1.27 1.27)) hide)
    )
    (pin "1" (uuid 8a2c13d7-d9af-4be7-82fb-a6fb5b18e774))
  )

  (symbol (lib_id "Device:R_Small_US") (at 133.35 87.63 270) (unit 1)
    (in_bom yes) (on_board yes)
    (uuid 00000000-0000-0000-0000-0000623b353c)
    (property "Reference" "R101" (id 0) (at 133.35 82.423 90))
    (property "Value" "0.5" (id 1) (at 133.35 84.7344 90))
    (property "Footprint" "Passive:RESA500" (id 2) (at 133.35 87.63 0)
      (effects (font (size 1.27 1.27)) hide)
    )
    (property "Datasheet" "~" (id 3) (at 133.35 87.63 0)
      (effects (font (size 1.27 1.27)) hide)
    )
    (property "Mouser" "660-CF1/4CR50J" (id 4) (at 81.28 -40.64 0)
      (effects (font (size 1.27 1.27)) hide)
    )
    (pin "1" (uuid 57c943e0-bc46-4a98-8871-02f8c8c8406a))
    (pin "2" (uuid b2677904-0f9b-4b8b-beb3-d2f53e017b0b))
  )

  (symbol (lib_id "Scopetrex-rescue:L_Core_Ferrite-Device") (at 165.1 109.22 90) (unit 1)
    (in_bom yes) (on_board yes)
    (uuid 00000000-0000-0000-0000-0000623bf0f8)
    (property "Reference" "L101" (id 0) (at 165.1 103.505 90))
    (property "Value" "220uH" (id 1) (at 165.1 105.8164 90))
    (property "Footprint" "Passive:INDA500P780X750" (id 2) (at 165.1 109.22 0)
      (effects (font (size 1.27 1.27)) hide)
    )
    (property "Datasheet" "~" (id 3) (at 165.1 109.22 0)
      (effects (font (size 1.27 1.27)) hide)
    )
    (property "Mouser" "851-RCR875DNP-221K" (id 4) (at 165.1 109.22 0)
      (effects (font (size 1.27 1.27)) hide)
    )
    (pin "1" (uuid 54b22226-57d4-482d-a77f-923e6abac3b3))
    (pin "2" (uuid 17a0f0e2-6795-4e25-84b0-af709cd3a28b))
  )

  (symbol (lib_id "power:GND") (at 237.49 111.76 0) (unit 1)
    (in_bom yes) (on_board yes)
    (uuid 00000000-0000-0000-0000-0000623c4e33)
    (property "Reference" "#PWR0231" (id 0) (at 237.49 118.11 0)
      (effects (font (size 1.27 1.27)) hide)
    )
    (property "Value" "GND" (id 1) (at 237.617 116.1542 0))
    (property "Footprint" "" (id 2) (at 237.49 111.76 0)
      (effects (font (size 1.27 1.27)) hide)
    )
    (property "Datasheet" "" (id 3) (at 237.49 111.76 0)
      (effects (font (size 1.27 1.27)) hide)
    )
    (pin "1" (uuid abb3e5a7-d044-4c75-8de9-710e0bceef47))
  )

  (symbol (lib_id "Scopetrex-rescue:D_Schottky_Small_ALT-Device") (at 160.02 120.65 270) (unit 1)
    (in_bom yes) (on_board yes)
    (uuid 00000000-0000-0000-0000-0000623ce0bf)
    (property "Reference" "D101" (id 0) (at 152.4 119.38 90)
      (effects (font (size 1.27 1.27)) (justify left))
    )
    (property "Value" "1N5819" (id 1) (at 149.86 121.92 90)
      (effects (font (size 1.27 1.27)) (justify left))
    )
    (property "Footprint" "Passive:DIOA500" (id 2) (at 160.02 120.65 90)
      (effects (font (size 1.27 1.27)) hide)
    )
    (property "Datasheet" "~" (id 3) (at 160.02 120.65 90)
      (effects (font (size 1.27 1.27)) hide)
    )
    (property "Mouser" "511-1N5819" (id 4) (at 160.02 120.65 0)
      (effects (font (size 1.27 1.27)) hide)
    )
    (pin "1" (uuid b9cb37fe-4b0b-4df6-b517-4f704ac1c328))
    (pin "2" (uuid df8fef29-2af7-4503-b4f9-c0d1ddc263ed))
  )

  (symbol (lib_id "Device:R_Small_US") (at 147.32 125.73 0) (unit 1)
    (in_bom yes) (on_board yes)
    (uuid 00000000-0000-0000-0000-000062401dc1)
    (property "Reference" "R102" (id 0) (at 142.113 125.73 90))
    (property "Value" "2.2K" (id 1) (at 144.4244 125.73 90))
    (property "Footprint" "Passive:RESA500" (id 2) (at 147.32 125.73 0)
      (effects (font (size 1.27 1.27)) hide)
    )
    (property "Datasheet" "~" (id 3) (at 147.32 125.73 0)
      (effects (font (size 1.27 1.27)) hide)
    )
    (property "Mouser" "603-CFR-25JR-522K2" (id 4) (at 19.05 177.8 0)
      (effects (font (size 1.27 1.27)) hide)
    )
    (pin "1" (uuid 53ff1bd0-a412-4b89-a988-6893c9f95cbb))
    (pin "2" (uuid 5491222c-70a8-427b-83d8-b969746a4819))
  )

  (symbol (lib_id "Device:R_Small_US") (at 153.67 101.6 270) (unit 1)
    (in_bom yes) (on_board yes)
    (uuid 00000000-0000-0000-0000-000062402e16)
    (property "Reference" "R103" (id 0) (at 153.67 96.393 90))
    (property "Value" "22K" (id 1) (at 153.67 98.7044 90))
    (property "Footprint" "Passive:RESA500" (id 2) (at 153.67 101.6 0)
      (effects (font (size 1.27 1.27)) hide)
    )
    (property "Datasheet" "~" (id 3) (at 153.67 101.6 0)
      (effects (font (size 1.27 1.27)) hide)
    )
    (property "Mouser" "603-CFR-25JR-522K" (id 4) (at 101.6 -26.67 0)
      (effects (font (size 1.27 1.27)) hide)
    )
    (pin "1" (uuid 14c8c2a8-3c3f-4e52-9053-bf86fefec150))
    (pin "2" (uuid ecf33478-8a5f-4bcb-906d-641c1e9c9431))
  )

  (symbol (lib_id "Device:C_Small") (at 170.18 120.65 180) (unit 1)
    (in_bom yes) (on_board yes)
    (uuid 00000000-0000-0000-0000-0000624215c8)
    (property "Reference" "C103" (id 0) (at 175.26 119.38 0))
    (property "Value" "0.1uF" (id 1) (at 175.26 121.92 0))
    (property "Footprint" "Passive:C_Disc_D0.2in_W0.1in_P0.2in" (id 2) (at 170.18 120.65 0)
      (effects (font (size 1.27 1.27)) hide)
    )
    (property "Datasheet" "~" (id 3) (at 170.18 120.65 0)
      (effects (font (size 1.27 1.27)) hide)
    )
    (property "Mouser" "581-SR215C104K" (id 4) (at 285.75 1.27 0)
      (effects (font (size 1.27 1.27)) hide)
    )
    (pin "1" (uuid 2af9d1d4-72f4-4b16-913a-006a327f8da3))
    (pin "2" (uuid 7fdc06d5-45bd-43a3-9056-c83cfefbcb3d))
  )

  (symbol (lib_id "power:GND") (at 114.3 83.82 0) (unit 1)
    (in_bom yes) (on_board yes)
    (uuid 00000000-0000-0000-0000-0000624a0ca6)
    (property "Reference" "#PWR0232" (id 0) (at 114.3 90.17 0)
      (effects (font (size 1.27 1.27)) hide)
    )
    (property "Value" "GND" (id 1) (at 114.427 88.2142 0))
    (property "Footprint" "" (id 2) (at 114.3 83.82 0)
      (effects (font (size 1.27 1.27)) hide)
    )
    (property "Datasheet" "" (id 3) (at 114.3 83.82 0)
      (effects (font (size 1.27 1.27)) hide)
    )
    (pin "1" (uuid de107515-2a47-4a42-8f8f-bf850baeac22))
  )

  (symbol (lib_id "Device:C_Small") (at 87.63 77.47 0) (unit 1)
    (in_bom yes) (on_board yes)
    (uuid 00000000-0000-0000-0000-0000624b55bb)
    (property "Reference" "C211" (id 0) (at 89.9668 76.3016 0)
      (effects (font (size 1.27 1.27)) (justify left))
    )
    (property "Value" "0.1uF" (id 1) (at 89.9668 78.613 0)
      (effects (font (size 1.27 1.27)) (justify left))
    )
    (property "Footprint" "Passive:C_Disc_D0.2in_W0.1in_P0.2in" (id 2) (at 87.63 77.47 0)
      (effects (font (size 1.27 1.27)) hide)
    )
    (property "Datasheet" "~" (id 3) (at 87.63 77.47 0)
      (effects (font (size 1.27 1.27)) hide)
    )
    (property "Mouser" "581-SR215C104K" (id 4) (at -83.82 167.64 0)
      (effects (font (size 1.27 1.27)) hide)
    )
    (pin "1" (uuid eeddf7a7-5f45-4b0c-ac91-610983a5753a))
    (pin "2" (uuid e92551d0-a6f5-4911-aefb-e38a1e20a451))
  )

  (symbol (lib_id "power:GND") (at 87.63 81.28 0) (unit 1)
    (in_bom yes) (on_board yes)
    (uuid 00000000-0000-0000-0000-0000624d4800)
    (property "Reference" "#PWR0233" (id 0) (at 87.63 87.63 0)
      (effects (font (size 1.27 1.27)) hide)
    )
    (property "Value" "GND" (id 1) (at 87.757 85.6742 0))
    (property "Footprint" "" (id 2) (at 87.63 81.28 0)
      (effects (font (size 1.27 1.27)) hide)
    )
    (property "Datasheet" "" (id 3) (at 87.63 81.28 0)
      (effects (font (size 1.27 1.27)) hide)
    )
    (pin "1" (uuid edf0afe6-9518-4bb0-9391-0e8c38aac89e))
  )

  (symbol (lib_id "Switch:SW_SPDT") (at 60.96 101.6 0) (unit 1)
    (in_bom yes) (on_board yes)
    (uuid 00000000-0000-0000-0000-0000624f8b2e)
    (property "Reference" "SW101" (id 0) (at 60.96 94.361 0))
    (property "Value" "POWER" (id 1) (at 60.96 96.6724 0))
    (property "Footprint" "Switch:NKK_CS12ANW03" (id 2) (at 60.96 101.6 0)
      (effects (font (size 1.27 1.27)) hide)
    )
    (property "Datasheet" "~" (id 3) (at 60.96 101.6 0)
      (effects (font (size 1.27 1.27)) hide)
    )
    (property "Mouser" "633-CS12ANW03" (id 4) (at 60.96 101.6 0)
      (effects (font (size 1.27 1.27)) hide)
    )
    (pin "1" (uuid f2c94a35-39cb-476c-93d7-2cea21c4a707))
    (pin "2" (uuid 32905a83-b030-4a55-8554-edbf96c1a7a6))
    (pin "3" (uuid 5c39b61d-31a7-4b89-980b-f3616c63ce4f))
  )
)
