G04 #@! TF.GenerationSoftware,KiCad,Pcbnew,6.0.6+dfsg-1*
G04 #@! TF.CreationDate,2022-08-11T10:23:50+02:00*
G04 #@! TF.ProjectId,Scopetrex,53636f70-6574-4726-9578-2e6b69636164,rev?*
G04 #@! TF.SameCoordinates,Original*
G04 #@! TF.FileFunction,Legend,Bot*
G04 #@! TF.FilePolarity,Positive*
%FSLAX46Y46*%
G04 Gerber Fmt 4.6, Leading zero omitted, Abs format (unit mm)*
G04 Created by KiCad (PCBNEW 6.0.6+dfsg-1) date 2022-08-11 10:23:50*
%MOMM*%
%LPD*%
G01*
G04 APERTURE LIST*
%ADD10C,0.177800*%
G04 APERTURE END LIST*
D10*
X142390525Y-107428997D02*
X142209096Y-107489473D01*
X141906715Y-107489473D01*
X141785763Y-107428997D01*
X141725287Y-107368521D01*
X141664810Y-107247569D01*
X141664810Y-107126616D01*
X141725287Y-107005664D01*
X141785763Y-106945188D01*
X141906715Y-106884711D01*
X142148620Y-106824235D01*
X142269572Y-106763759D01*
X142330049Y-106703283D01*
X142390525Y-106582330D01*
X142390525Y-106461378D01*
X142330049Y-106340426D01*
X142269572Y-106279950D01*
X142148620Y-106219473D01*
X141846239Y-106219473D01*
X141664810Y-106279950D01*
X141120525Y-107489473D02*
X141120525Y-106219473D01*
X140576239Y-107489473D02*
X140576239Y-106824235D01*
X140636715Y-106703283D01*
X140757668Y-106642807D01*
X140939096Y-106642807D01*
X141060049Y-106703283D01*
X141120525Y-106763759D01*
X139790049Y-107489473D02*
X139911001Y-107428997D01*
X139971477Y-107368521D01*
X140031953Y-107247569D01*
X140031953Y-106884711D01*
X139971477Y-106763759D01*
X139911001Y-106703283D01*
X139790049Y-106642807D01*
X139608620Y-106642807D01*
X139487668Y-106703283D01*
X139427191Y-106763759D01*
X139366715Y-106884711D01*
X139366715Y-107247569D01*
X139427191Y-107368521D01*
X139487668Y-107428997D01*
X139608620Y-107489473D01*
X139790049Y-107489473D01*
X138278144Y-106642807D02*
X138278144Y-107489473D01*
X138822430Y-106642807D02*
X138822430Y-107308045D01*
X138761953Y-107428997D01*
X138641001Y-107489473D01*
X138459572Y-107489473D01*
X138338620Y-107428997D01*
X138278144Y-107368521D01*
X137854810Y-106642807D02*
X137371001Y-106642807D01*
X137673382Y-106219473D02*
X137673382Y-107308045D01*
X137612906Y-107428997D01*
X137491953Y-107489473D01*
X137371001Y-107489473D01*
X137008144Y-107428997D02*
X136887191Y-107489473D01*
X136645287Y-107489473D01*
X136524334Y-107428997D01*
X136463858Y-107308045D01*
X136463858Y-107247569D01*
X136524334Y-107126616D01*
X136645287Y-107066140D01*
X136826715Y-107066140D01*
X136947668Y-107005664D01*
X137008144Y-106884711D01*
X137008144Y-106824235D01*
X136947668Y-106703283D01*
X136826715Y-106642807D01*
X136645287Y-106642807D01*
X136524334Y-106703283D01*
X135133382Y-106642807D02*
X134649572Y-106642807D01*
X134951953Y-106219473D02*
X134951953Y-107308045D01*
X134891477Y-107428997D01*
X134770525Y-107489473D01*
X134649572Y-107489473D01*
X134044810Y-107489473D02*
X134165763Y-107428997D01*
X134226239Y-107368521D01*
X134286715Y-107247569D01*
X134286715Y-106884711D01*
X134226239Y-106763759D01*
X134165763Y-106703283D01*
X134044810Y-106642807D01*
X133863382Y-106642807D01*
X133742430Y-106703283D01*
X133681953Y-106763759D01*
X133621477Y-106884711D01*
X133621477Y-107247569D01*
X133681953Y-107368521D01*
X133742430Y-107428997D01*
X133863382Y-107489473D01*
X134044810Y-107489473D01*
X133077191Y-107368521D02*
X133016715Y-107428997D01*
X133077191Y-107489473D01*
X133137668Y-107428997D01*
X133077191Y-107368521D01*
X133077191Y-107489473D01*
X133077191Y-106703283D02*
X133016715Y-106763759D01*
X133077191Y-106824235D01*
X133137668Y-106763759D01*
X133077191Y-106703283D01*
X133077191Y-106824235D01*
X141785763Y-109534173D02*
X141785763Y-108868935D01*
X141846239Y-108747983D01*
X141967191Y-108687507D01*
X142209096Y-108687507D01*
X142330049Y-108747983D01*
X141785763Y-109473697D02*
X141906715Y-109534173D01*
X142209096Y-109534173D01*
X142330049Y-109473697D01*
X142390525Y-109352745D01*
X142390525Y-109231792D01*
X142330049Y-109110840D01*
X142209096Y-109050364D01*
X141906715Y-109050364D01*
X141785763Y-108989888D01*
X140697191Y-109473697D02*
X140818144Y-109534173D01*
X141060049Y-109534173D01*
X141181001Y-109473697D01*
X141241477Y-109352745D01*
X141241477Y-108868935D01*
X141181001Y-108747983D01*
X141060049Y-108687507D01*
X140818144Y-108687507D01*
X140697191Y-108747983D01*
X140636715Y-108868935D01*
X140636715Y-108989888D01*
X141241477Y-109110840D01*
X140092430Y-109534173D02*
X140092430Y-108264173D01*
X139971477Y-109050364D02*
X139608620Y-109534173D01*
X139608620Y-108687507D02*
X140092430Y-109171316D01*
X139003858Y-109473697D02*
X139003858Y-109534173D01*
X139064334Y-109655126D01*
X139124810Y-109715602D01*
X137129096Y-108264173D02*
X137129096Y-109171316D01*
X137189572Y-109352745D01*
X137310525Y-109473697D01*
X137491953Y-109534173D01*
X137612906Y-109534173D01*
X136524334Y-109534173D02*
X136524334Y-108687507D01*
X136524334Y-108264173D02*
X136584810Y-108324650D01*
X136524334Y-108385126D01*
X136463858Y-108324650D01*
X136524334Y-108264173D01*
X136524334Y-108385126D01*
X135919572Y-109534173D02*
X135919572Y-108687507D01*
X135919572Y-108808459D02*
X135859096Y-108747983D01*
X135738144Y-108687507D01*
X135556715Y-108687507D01*
X135435763Y-108747983D01*
X135375287Y-108868935D01*
X135375287Y-109534173D01*
X135375287Y-108868935D02*
X135314810Y-108747983D01*
X135193858Y-108687507D01*
X135012430Y-108687507D01*
X134891477Y-108747983D01*
X134831001Y-108868935D01*
X134831001Y-109534173D01*
X134165763Y-109473697D02*
X134165763Y-109534173D01*
X134226239Y-109655126D01*
X134286715Y-109715602D01*
X132109572Y-109534173D02*
X132109572Y-108868935D01*
X132170049Y-108747983D01*
X132291001Y-108687507D01*
X132532906Y-108687507D01*
X132653858Y-108747983D01*
X132109572Y-109473697D02*
X132230525Y-109534173D01*
X132532906Y-109534173D01*
X132653858Y-109473697D01*
X132714334Y-109352745D01*
X132714334Y-109231792D01*
X132653858Y-109110840D01*
X132532906Y-109050364D01*
X132230525Y-109050364D01*
X132109572Y-108989888D01*
X131504810Y-108687507D02*
X131504810Y-109534173D01*
X131504810Y-108808459D02*
X131444334Y-108747983D01*
X131323382Y-108687507D01*
X131141953Y-108687507D01*
X131021001Y-108747983D01*
X130960525Y-108868935D01*
X130960525Y-109534173D01*
X129811477Y-109534173D02*
X129811477Y-108264173D01*
X129811477Y-109473697D02*
X129932430Y-109534173D01*
X130174334Y-109534173D01*
X130295287Y-109473697D01*
X130355763Y-109413221D01*
X130416239Y-109292269D01*
X130416239Y-108929411D01*
X130355763Y-108808459D01*
X130295287Y-108747983D01*
X130174334Y-108687507D01*
X129932430Y-108687507D01*
X129811477Y-108747983D01*
X128239096Y-109534173D02*
X128239096Y-108264173D01*
X128239096Y-108868935D02*
X127513382Y-108868935D01*
X127513382Y-109534173D02*
X127513382Y-108264173D01*
X126424810Y-109473697D02*
X126545763Y-109534173D01*
X126787668Y-109534173D01*
X126908620Y-109473697D01*
X126969096Y-109352745D01*
X126969096Y-108868935D01*
X126908620Y-108747983D01*
X126787668Y-108687507D01*
X126545763Y-108687507D01*
X126424810Y-108747983D01*
X126364334Y-108868935D01*
X126364334Y-108989888D01*
X126969096Y-109110840D01*
X125275763Y-109534173D02*
X125275763Y-108264173D01*
X125275763Y-109473697D02*
X125396715Y-109534173D01*
X125638620Y-109534173D01*
X125759572Y-109473697D01*
X125820049Y-109413221D01*
X125880525Y-109292269D01*
X125880525Y-108929411D01*
X125820049Y-108808459D01*
X125759572Y-108747983D01*
X125638620Y-108687507D01*
X125396715Y-108687507D01*
X125275763Y-108747983D01*
X124489572Y-109534173D02*
X124610525Y-109473697D01*
X124671001Y-109352745D01*
X124671001Y-108264173D01*
X123521953Y-109473697D02*
X123642906Y-109534173D01*
X123884810Y-109534173D01*
X124005763Y-109473697D01*
X124066239Y-109352745D01*
X124066239Y-108868935D01*
X124005763Y-108747983D01*
X123884810Y-108687507D01*
X123642906Y-108687507D01*
X123521953Y-108747983D01*
X123461477Y-108868935D01*
X123461477Y-108989888D01*
X124066239Y-109110840D01*
X123038144Y-108687507D02*
X122735763Y-109534173D01*
X122433382Y-108687507D02*
X122735763Y-109534173D01*
X122856715Y-109836554D01*
X122917191Y-109897030D01*
X123038144Y-109957507D01*
X142390525Y-110732207D02*
X141483382Y-110732207D01*
X142027668Y-110187921D02*
X142390525Y-111820778D01*
X141604334Y-111276492D02*
X142511477Y-111276492D01*
X141967191Y-111820778D02*
X141604334Y-110187921D01*
X141120525Y-110732207D02*
X140213382Y-110732207D01*
X140757668Y-110187921D02*
X141120525Y-111820778D01*
X140334334Y-111276492D02*
X141241477Y-111276492D01*
X140697191Y-111820778D02*
X140334334Y-110187921D01*
X139911001Y-110732207D02*
X139608620Y-111578873D01*
X139306239Y-110732207D02*
X139608620Y-111578873D01*
X139729572Y-111881254D01*
X139790049Y-111941730D01*
X139911001Y-112002207D01*
X138278144Y-111578873D02*
X138278144Y-110913635D01*
X138338620Y-110792683D01*
X138459572Y-110732207D01*
X138701477Y-110732207D01*
X138822430Y-110792683D01*
X138278144Y-111518397D02*
X138399096Y-111578873D01*
X138701477Y-111578873D01*
X138822430Y-111518397D01*
X138882906Y-111397445D01*
X138882906Y-111276492D01*
X138822430Y-111155540D01*
X138701477Y-111095064D01*
X138399096Y-111095064D01*
X138278144Y-111034588D01*
X137673382Y-111578873D02*
X137673382Y-110732207D01*
X137673382Y-110853159D02*
X137612906Y-110792683D01*
X137491953Y-110732207D01*
X137310525Y-110732207D01*
X137189572Y-110792683D01*
X137129096Y-110913635D01*
X137129096Y-111578873D01*
X137129096Y-110913635D02*
X137068620Y-110792683D01*
X136947668Y-110732207D01*
X136766239Y-110732207D01*
X136645287Y-110792683D01*
X136584810Y-110913635D01*
X136584810Y-111578873D01*
X135435763Y-111578873D02*
X135435763Y-110913635D01*
X135496239Y-110792683D01*
X135617191Y-110732207D01*
X135859096Y-110732207D01*
X135980049Y-110792683D01*
X135435763Y-111518397D02*
X135556715Y-111578873D01*
X135859096Y-111578873D01*
X135980049Y-111518397D01*
X136040525Y-111397445D01*
X136040525Y-111276492D01*
X135980049Y-111155540D01*
X135859096Y-111095064D01*
X135556715Y-111095064D01*
X135435763Y-111034588D01*
X134831001Y-111578873D02*
X134831001Y-110308873D01*
X134286715Y-111578873D02*
X134286715Y-110913635D01*
X134347191Y-110792683D01*
X134468144Y-110732207D01*
X134649572Y-110732207D01*
X134770525Y-110792683D01*
X134831001Y-110853159D01*
X133137668Y-111578873D02*
X133137668Y-110913635D01*
X133198144Y-110792683D01*
X133319096Y-110732207D01*
X133561001Y-110732207D01*
X133681953Y-110792683D01*
X133137668Y-111518397D02*
X133258620Y-111578873D01*
X133561001Y-111578873D01*
X133681953Y-111518397D01*
X133742430Y-111397445D01*
X133742430Y-111276492D01*
X133681953Y-111155540D01*
X133561001Y-111095064D01*
X133258620Y-111095064D01*
X133137668Y-111034588D01*
X132593382Y-111518397D02*
X132472430Y-111578873D01*
X132230525Y-111578873D01*
X132109572Y-111518397D01*
X132049096Y-111397445D01*
X132049096Y-111336969D01*
X132109572Y-111216016D01*
X132230525Y-111155540D01*
X132411953Y-111155540D01*
X132532906Y-111095064D01*
X132593382Y-110974111D01*
X132593382Y-110913635D01*
X132532906Y-110792683D01*
X132411953Y-110732207D01*
X132230525Y-110732207D01*
X132109572Y-110792683D01*
X131625763Y-110732207D02*
X131323382Y-111578873D01*
X131021001Y-110732207D02*
X131323382Y-111578873D01*
X131444334Y-111881254D01*
X131504810Y-111941730D01*
X131625763Y-112002207D01*
X130537191Y-110732207D02*
X130537191Y-111578873D01*
X130537191Y-110853159D02*
X130476715Y-110792683D01*
X130355763Y-110732207D01*
X130174334Y-110732207D01*
X130053382Y-110792683D01*
X129992906Y-110913635D01*
X129992906Y-111578873D01*
X129569572Y-110732207D02*
X129085763Y-110732207D01*
X129388144Y-110308873D02*
X129388144Y-111397445D01*
X129327668Y-111518397D01*
X129206715Y-111578873D01*
X129085763Y-111578873D01*
X128662430Y-111578873D02*
X128662430Y-110308873D01*
X128118144Y-111578873D02*
X128118144Y-110913635D01*
X128178620Y-110792683D01*
X128299572Y-110732207D01*
X128481001Y-110732207D01*
X128601953Y-110792683D01*
X128662430Y-110853159D01*
X127573858Y-111518397D02*
X127452906Y-111578873D01*
X127211001Y-111578873D01*
X127090049Y-111518397D01*
X127029572Y-111397445D01*
X127029572Y-111336969D01*
X127090049Y-111216016D01*
X127211001Y-111155540D01*
X127392430Y-111155540D01*
X127513382Y-111095064D01*
X127573858Y-110974111D01*
X127573858Y-110913635D01*
X127513382Y-110792683D01*
X127392430Y-110732207D01*
X127211001Y-110732207D01*
X127090049Y-110792683D01*
X142451001Y-112353573D02*
X141604334Y-112353573D01*
X142451001Y-113623573D01*
X141604334Y-113623573D01*
X139608620Y-113623573D02*
X139608620Y-112958335D01*
X139669096Y-112837383D01*
X139790049Y-112776907D01*
X140031953Y-112776907D01*
X140152906Y-112837383D01*
X139608620Y-113563097D02*
X139729572Y-113623573D01*
X140031953Y-113623573D01*
X140152906Y-113563097D01*
X140213382Y-113442145D01*
X140213382Y-113321192D01*
X140152906Y-113200240D01*
X140031953Y-113139764D01*
X139729572Y-113139764D01*
X139608620Y-113079288D01*
X139003858Y-112776907D02*
X139003858Y-113623573D01*
X139003858Y-112897859D02*
X138943382Y-112837383D01*
X138822430Y-112776907D01*
X138641001Y-112776907D01*
X138520049Y-112837383D01*
X138459572Y-112958335D01*
X138459572Y-113623573D01*
X137310525Y-113623573D02*
X137310525Y-112353573D01*
X137310525Y-113563097D02*
X137431477Y-113623573D01*
X137673382Y-113623573D01*
X137794334Y-113563097D01*
X137854810Y-113502621D01*
X137915287Y-113381669D01*
X137915287Y-113018811D01*
X137854810Y-112897859D01*
X137794334Y-112837383D01*
X137673382Y-112776907D01*
X137431477Y-112776907D01*
X137310525Y-112837383D01*
X135919572Y-112776907D02*
X135435763Y-112776907D01*
X135738144Y-112353573D02*
X135738144Y-113442145D01*
X135677668Y-113563097D01*
X135556715Y-113623573D01*
X135435763Y-113623573D01*
X135012430Y-113623573D02*
X135012430Y-112353573D01*
X134468144Y-113623573D02*
X134468144Y-112958335D01*
X134528620Y-112837383D01*
X134649572Y-112776907D01*
X134831001Y-112776907D01*
X134951953Y-112837383D01*
X135012430Y-112897859D01*
X133379572Y-113563097D02*
X133500525Y-113623573D01*
X133742430Y-113623573D01*
X133863382Y-113563097D01*
X133923858Y-113442145D01*
X133923858Y-112958335D01*
X133863382Y-112837383D01*
X133742430Y-112776907D01*
X133500525Y-112776907D01*
X133379572Y-112837383D01*
X133319096Y-112958335D01*
X133319096Y-113079288D01*
X133923858Y-113200240D01*
X131081477Y-113623573D02*
X131504810Y-113018811D01*
X131807191Y-113623573D02*
X131807191Y-112353573D01*
X131323382Y-112353573D01*
X131202429Y-112414050D01*
X131141953Y-112474526D01*
X131081477Y-112595478D01*
X131081477Y-112776907D01*
X131141953Y-112897859D01*
X131202429Y-112958335D01*
X131323382Y-113018811D01*
X131807191Y-113018811D01*
X130053382Y-113563097D02*
X130174334Y-113623573D01*
X130416239Y-113623573D01*
X130537191Y-113563097D01*
X130597668Y-113442145D01*
X130597668Y-112958335D01*
X130537191Y-112837383D01*
X130416239Y-112776907D01*
X130174334Y-112776907D01*
X130053382Y-112837383D01*
X129992906Y-112958335D01*
X129992906Y-113079288D01*
X130597668Y-113200240D01*
X129630049Y-112776907D02*
X129146239Y-112776907D01*
X129448620Y-112353573D02*
X129448620Y-113442145D01*
X129388144Y-113563097D01*
X129267191Y-113623573D01*
X129146239Y-113623573D01*
X128722906Y-113623573D02*
X128722906Y-112776907D01*
X128722906Y-113018811D02*
X128662429Y-112897859D01*
X128601953Y-112837383D01*
X128481001Y-112776907D01*
X128360049Y-112776907D01*
X127755287Y-113623573D02*
X127876239Y-113563097D01*
X127936715Y-113502621D01*
X127997191Y-113381669D01*
X127997191Y-113018811D01*
X127936715Y-112897859D01*
X127876239Y-112837383D01*
X127755287Y-112776907D01*
X127573858Y-112776907D01*
X127452906Y-112837383D01*
X127392429Y-112897859D01*
X127331953Y-113018811D01*
X127331953Y-113381669D01*
X127392429Y-113502621D01*
X127452906Y-113563097D01*
X127573858Y-113623573D01*
X127755287Y-113623573D01*
X125820049Y-113623573D02*
X125820049Y-112353573D01*
X125517668Y-112353573D01*
X125336239Y-112414050D01*
X125215287Y-112535002D01*
X125154810Y-112655954D01*
X125094334Y-112897859D01*
X125094334Y-113079288D01*
X125154810Y-113321192D01*
X125215287Y-113442145D01*
X125336239Y-113563097D01*
X125517668Y-113623573D01*
X125820049Y-113623573D01*
X124550049Y-113623573D02*
X124550049Y-112776907D01*
X124550049Y-113018811D02*
X124489572Y-112897859D01*
X124429096Y-112837383D01*
X124308144Y-112776907D01*
X124187191Y-112776907D01*
X123280049Y-113563097D02*
X123401001Y-113623573D01*
X123642906Y-113623573D01*
X123763858Y-113563097D01*
X123824334Y-113442145D01*
X123824334Y-112958335D01*
X123763858Y-112837383D01*
X123642906Y-112776907D01*
X123401001Y-112776907D01*
X123280049Y-112837383D01*
X123219572Y-112958335D01*
X123219572Y-113079288D01*
X123824334Y-113200240D01*
X122131001Y-113623573D02*
X122131001Y-112958335D01*
X122191477Y-112837383D01*
X122312429Y-112776907D01*
X122554334Y-112776907D01*
X122675287Y-112837383D01*
X122131001Y-113563097D02*
X122251953Y-113623573D01*
X122554334Y-113623573D01*
X122675287Y-113563097D01*
X122735763Y-113442145D01*
X122735763Y-113321192D01*
X122675287Y-113200240D01*
X122554334Y-113139764D01*
X122251953Y-113139764D01*
X122131001Y-113079288D01*
X121526239Y-113623573D02*
X121526239Y-112776907D01*
X121526239Y-112897859D02*
X121465763Y-112837383D01*
X121344810Y-112776907D01*
X121163382Y-112776907D01*
X121042429Y-112837383D01*
X120981953Y-112958335D01*
X120981953Y-113623573D01*
X120981953Y-112958335D02*
X120921477Y-112837383D01*
X120800525Y-112776907D01*
X120619096Y-112776907D01*
X120498144Y-112837383D01*
X120437668Y-112958335D01*
X120437668Y-113623573D01*
X119893382Y-113563097D02*
X119772429Y-113623573D01*
X119530525Y-113623573D01*
X119409572Y-113563097D01*
X119349096Y-113442145D01*
X119349096Y-113381669D01*
X119409572Y-113260716D01*
X119530525Y-113200240D01*
X119711953Y-113200240D01*
X119832906Y-113139764D01*
X119893382Y-113018811D01*
X119893382Y-112958335D01*
X119832906Y-112837383D01*
X119711953Y-112776907D01*
X119530525Y-112776907D01*
X119409572Y-112837383D01*
X117292906Y-113563097D02*
X117413858Y-113623573D01*
X117655763Y-113623573D01*
X117776715Y-113563097D01*
X117837191Y-113502621D01*
X117897668Y-113381669D01*
X117897668Y-113018811D01*
X117837191Y-112897859D01*
X117776715Y-112837383D01*
X117655763Y-112776907D01*
X117413858Y-112776907D01*
X117292906Y-112837383D01*
X116748620Y-113623573D02*
X116748620Y-112776907D01*
X116748620Y-113018811D02*
X116688144Y-112897859D01*
X116627668Y-112837383D01*
X116506715Y-112776907D01*
X116385763Y-112776907D01*
X115478620Y-113563097D02*
X115599572Y-113623573D01*
X115841477Y-113623573D01*
X115962429Y-113563097D01*
X116022906Y-113442145D01*
X116022906Y-112958335D01*
X115962429Y-112837383D01*
X115841477Y-112776907D01*
X115599572Y-112776907D01*
X115478620Y-112837383D01*
X115418144Y-112958335D01*
X115418144Y-113079288D01*
X116022906Y-113200240D01*
X114994810Y-112776907D02*
X114752906Y-113623573D01*
X114511001Y-113018811D01*
X114269096Y-113623573D01*
X114027191Y-112776907D01*
M02*
