%FSLAX45Y45*%
G04 Gerber Fmt 4.5, Leading zero omitted, Abs format (unit mm)*
G04 Created by KiCad (PCBNEW 6.0.6+dfsg-1) date 2022-08-11 10:23:38*
%MOMM*%
%LPD*%
G01*
G04 APERTURE LIST*
%TA.AperFunction,Profile*%
%ADD10C,0.050000*%
%TD*%
%ADD11C,0.200000*%
G04 APERTURE END LIST*
D10*
X4572000Y-2032000D02*
X4572000Y-14732000D01*
X22352000Y-2032000D02*
X4572000Y-2032000D01*
X22352000Y-14732000D02*
X22352000Y-2032000D01*
X4572000Y-14732000D02*
X22352000Y-14732000D01*
D11*
X4827119Y-15044976D02*
X4827119Y-14844976D01*
X4874738Y-14844976D01*
X4903310Y-14854500D01*
X4922357Y-14873548D01*
X4931881Y-14892595D01*
X4941405Y-14930690D01*
X4941405Y-14959262D01*
X4931881Y-14997357D01*
X4922357Y-15016405D01*
X4903310Y-15035452D01*
X4874738Y-15044976D01*
X4827119Y-15044976D01*
X5027119Y-15044976D02*
X5027119Y-14911643D01*
X5027119Y-14949738D02*
X5036643Y-14930690D01*
X5046167Y-14921167D01*
X5065214Y-14911643D01*
X5084262Y-14911643D01*
X5150929Y-15044976D02*
X5150929Y-14911643D01*
X5150929Y-14844976D02*
X5141405Y-14854500D01*
X5150929Y-14864024D01*
X5160452Y-14854500D01*
X5150929Y-14844976D01*
X5150929Y-14864024D01*
X5274738Y-15044976D02*
X5255690Y-15035452D01*
X5246167Y-15016405D01*
X5246167Y-14844976D01*
X5379500Y-15044976D02*
X5360452Y-15035452D01*
X5350929Y-15016405D01*
X5350929Y-14844976D01*
X5608071Y-15044976D02*
X5608071Y-14844976D01*
X5674738Y-14987833D01*
X5741405Y-14844976D01*
X5741405Y-15044976D01*
X5922357Y-15044976D02*
X5922357Y-14940214D01*
X5912833Y-14921167D01*
X5893786Y-14911643D01*
X5855690Y-14911643D01*
X5836643Y-14921167D01*
X5922357Y-15035452D02*
X5903309Y-15044976D01*
X5855690Y-15044976D01*
X5836643Y-15035452D01*
X5827119Y-15016405D01*
X5827119Y-14997357D01*
X5836643Y-14978309D01*
X5855690Y-14968786D01*
X5903309Y-14968786D01*
X5922357Y-14959262D01*
X6017595Y-14911643D02*
X6017595Y-15111643D01*
X6017595Y-14921167D02*
X6036643Y-14911643D01*
X6074738Y-14911643D01*
X6093786Y-14921167D01*
X6103309Y-14930690D01*
X6112833Y-14949738D01*
X6112833Y-15006881D01*
X6103309Y-15025928D01*
X6093786Y-15035452D01*
X6074738Y-15044976D01*
X6036643Y-15044976D01*
X6017595Y-15035452D01*
X6198548Y-15025928D02*
X6208071Y-15035452D01*
X6198548Y-15044976D01*
X6189024Y-15035452D01*
X6198548Y-15025928D01*
X6198548Y-15044976D01*
X6198548Y-14921167D02*
X6208071Y-14930690D01*
X6198548Y-14940214D01*
X6189024Y-14930690D01*
X6198548Y-14921167D01*
X6198548Y-14940214D01*
M02*
